<?xml version='1.0' encoding='UTF-8'?>
<!DOCTYPE svg PUBLIC "-//W3C//DTD SVG 1.1//EN" "http://www.w3.org/Graphics/SVG/1.1/DTD/svg11.dtd"><svg height='400' version='1.1' width='600' xmlns:xlink='http://www.w3.org/1999/xlink' xmlns='http://www.w3.org/2000/svg'>
  <defs>
    <linearGradient id='vertgrad' x1='0%' x2='0%' y1='0%' y2='100%'>
      <stop offset='0%' style='stop-color:rgb(255,255,255)'/>
      <stop offset='100%' style='stop-color:rgb(192,192,192)'/>
    </linearGradient>
  </defs>
  <g id='GerbilSVGGraph'>
    <g fill='none' id='Gerbil_Root_Window' stroke='black'>
      <g fill='none' id='default' stroke='black'>
        <rect class='surfaceback' height='375' style='fill: url(#vertgrad);' width='560' x='40' y='0'/>
      </g>
      <g fill='none' id='default' stroke='black'>
        <g class='gridlineh' fill='none' id='hgrid' stroke='black' style='stroke-width: 1;stroke: lightgray;'>
          <line x1='40.00' x2='600.00' y1='375.00' y2='375.00'/>
          <line x1='40.00' x2='600.00' y1='300.00' y2='300.00'/>
          <line x1='40.00' x2='600.00' y1='225.00' y2='225.00'/>
          <line x1='40.00' x2='600.00' y1='150.00' y2='150.00'/>
          <line x1='40.00' x2='600.00' y1='75.00' y2='75.00'/>
          <line x1='40.00' x2='600.00' y1='0.00' y2='0.00'/>
        </g>
      </g>
      <g class='gridlinesub' fill='none' id='hgridsub' stroke='black'>
      </g>
      <g class='gridlinev' fill='none' id='vgrid' stroke='black' style='stroke-width: 1;stroke: lightgray;'>
        <line x1='10.13' x2='10.13' y1='0.00' y2='375.00'/>
        <line x1='55.50' x2='55.50' y1='0.00' y2='375.00'/>
        <line x1='100.88' x2='100.88' y1='0.00' y2='375.00'/>
        <line x1='146.25' x2='146.25' y1='0.00' y2='375.00'/>
        <line x1='191.63' x2='191.63' y1='0.00' y2='375.00'/>
        <line x1='237.00' x2='237.00' y1='0.00' y2='375.00'/>
        <line x1='282.38' x2='282.38' y1='0.00' y2='375.00'/>
        <line x1='327.75' x2='327.75' y1='0.00' y2='375.00'/>
        <line x1='373.13' x2='373.13' y1='0.00' y2='375.00'/>
        <line x1='418.50' x2='418.50' y1='0.00' y2='375.00'/>
        <line x1='463.88' x2='463.88' y1='0.00' y2='375.00'/>
        <line x1='509.25' x2='509.25' y1='0.00' y2='375.00'/>
        <line x1='554.63' x2='554.63' y1='0.00' y2='375.00'/>
        <line x1='600.00' x2='600.00' y1='0.00' y2='375.00'/>
      </g>
      <g class='gridlinesub' fill='none' id='vgridsub' stroke='black'>
        <line x1='10.13' x2='10.13' y1='0.00' y2='375.00'/>
        <line x1='15.80' x2='15.80' y1='0.00' y2='375.00'/>
        <line x1='21.47' x2='21.47' y1='0.00' y2='375.00'/>
        <line x1='27.14' x2='27.14' y1='0.00' y2='375.00'/>
        <line x1='32.82' x2='32.82' y1='0.00' y2='375.00'/>
        <line x1='38.49' x2='38.49' y1='0.00' y2='375.00'/>
        <line x1='44.16' x2='44.16' y1='0.00' y2='375.00'/>
        <line x1='49.83' x2='49.83' y1='0.00' y2='375.00'/>
        <line x1='55.50' x2='55.50' y1='0.00' y2='375.00'/>
        <line x1='61.17' x2='61.17' y1='0.00' y2='375.00'/>
        <line x1='66.85' x2='66.85' y1='0.00' y2='375.00'/>
        <line x1='72.52' x2='72.52' y1='0.00' y2='375.00'/>
        <line x1='78.19' x2='78.19' y1='0.00' y2='375.00'/>
        <line x1='83.86' x2='83.86' y1='0.00' y2='375.00'/>
        <line x1='89.53' x2='89.53' y1='0.00' y2='375.00'/>
        <line x1='95.21' x2='95.21' y1='0.00' y2='375.00'/>
        <line x1='100.88' x2='100.88' y1='0.00' y2='375.00'/>
        <line x1='106.55' x2='106.55' y1='0.00' y2='375.00'/>
        <line x1='112.22' x2='112.22' y1='0.00' y2='375.00'/>
        <line x1='117.89' x2='117.89' y1='0.00' y2='375.00'/>
        <line x1='123.57' x2='123.57' y1='0.00' y2='375.00'/>
        <line x1='129.24' x2='129.24' y1='0.00' y2='375.00'/>
        <line x1='134.91' x2='134.91' y1='0.00' y2='375.00'/>
        <line x1='140.58' x2='140.58' y1='0.00' y2='375.00'/>
        <line x1='146.25' x2='146.25' y1='0.00' y2='375.00'/>
        <line x1='151.92' x2='151.92' y1='0.00' y2='375.00'/>
        <line x1='157.60' x2='157.60' y1='0.00' y2='375.00'/>
        <line x1='163.27' x2='163.27' y1='0.00' y2='375.00'/>
        <line x1='168.94' x2='168.94' y1='0.00' y2='375.00'/>
        <line x1='174.61' x2='174.61' y1='0.00' y2='375.00'/>
        <line x1='180.28' x2='180.28' y1='0.00' y2='375.00'/>
        <line x1='185.96' x2='185.96' y1='0.00' y2='375.00'/>
        <line x1='191.63' x2='191.63' y1='0.00' y2='375.00'/>
        <line x1='197.30' x2='197.30' y1='0.00' y2='375.00'/>
        <line x1='202.97' x2='202.97' y1='0.00' y2='375.00'/>
        <line x1='208.64' x2='208.64' y1='0.00' y2='375.00'/>
        <line x1='214.31' x2='214.31' y1='0.00' y2='375.00'/>
        <line x1='219.99' x2='219.99' y1='0.00' y2='375.00'/>
        <line x1='225.66' x2='225.66' y1='0.00' y2='375.00'/>
        <line x1='231.33' x2='231.33' y1='0.00' y2='375.00'/>
        <line x1='237.00' x2='237.00' y1='0.00' y2='375.00'/>
        <line x1='242.67' x2='242.67' y1='0.00' y2='375.00'/>
        <line x1='248.35' x2='248.35' y1='0.00' y2='375.00'/>
        <line x1='254.02' x2='254.02' y1='0.00' y2='375.00'/>
        <line x1='259.69' x2='259.69' y1='0.00' y2='375.00'/>
        <line x1='265.36' x2='265.36' y1='0.00' y2='375.00'/>
        <line x1='271.03' x2='271.03' y1='0.00' y2='375.00'/>
        <line x1='276.70' x2='276.70' y1='0.00' y2='375.00'/>
        <line x1='282.38' x2='282.38' y1='0.00' y2='375.00'/>
        <line x1='288.05' x2='288.05' y1='0.00' y2='375.00'/>
        <line x1='293.72' x2='293.72' y1='0.00' y2='375.00'/>
        <line x1='299.39' x2='299.39' y1='0.00' y2='375.00'/>
        <line x1='305.06' x2='305.06' y1='0.00' y2='375.00'/>
        <line x1='310.74' x2='310.74' y1='0.00' y2='375.00'/>
        <line x1='316.41' x2='316.41' y1='0.00' y2='375.00'/>
        <line x1='322.08' x2='322.08' y1='0.00' y2='375.00'/>
        <line x1='327.75' x2='327.75' y1='0.00' y2='375.00'/>
        <line x1='333.42' x2='333.42' y1='0.00' y2='375.00'/>
        <line x1='339.10' x2='339.10' y1='0.00' y2='375.00'/>
        <line x1='344.77' x2='344.77' y1='0.00' y2='375.00'/>
        <line x1='350.44' x2='350.44' y1='0.00' y2='375.00'/>
        <line x1='356.11' x2='356.11' y1='0.00' y2='375.00'/>
        <line x1='361.78' x2='361.78' y1='0.00' y2='375.00'/>
        <line x1='367.45' x2='367.45' y1='0.00' y2='375.00'/>
        <line x1='373.13' x2='373.13' y1='0.00' y2='375.00'/>
        <line x1='378.80' x2='378.80' y1='0.00' y2='375.00'/>
        <line x1='384.47' x2='384.47' y1='0.00' y2='375.00'/>
        <line x1='390.14' x2='390.14' y1='0.00' y2='375.00'/>
        <line x1='395.81' x2='395.81' y1='0.00' y2='375.00'/>
        <line x1='401.49' x2='401.49' y1='0.00' y2='375.00'/>
        <line x1='407.16' x2='407.16' y1='0.00' y2='375.00'/>
        <line x1='412.83' x2='412.83' y1='0.00' y2='375.00'/>
        <line x1='418.50' x2='418.50' y1='0.00' y2='375.00'/>
        <line x1='424.17' x2='424.17' y1='0.00' y2='375.00'/>
        <line x1='429.84' x2='429.84' y1='0.00' y2='375.00'/>
        <line x1='435.52' x2='435.52' y1='0.00' y2='375.00'/>
        <line x1='441.19' x2='441.19' y1='0.00' y2='375.00'/>
        <line x1='446.86' x2='446.86' y1='0.00' y2='375.00'/>
        <line x1='452.53' x2='452.53' y1='0.00' y2='375.00'/>
        <line x1='458.20' x2='458.20' y1='0.00' y2='375.00'/>
        <line x1='463.88' x2='463.88' y1='0.00' y2='375.00'/>
        <line x1='469.55' x2='469.55' y1='0.00' y2='375.00'/>
        <line x1='475.22' x2='475.22' y1='0.00' y2='375.00'/>
        <line x1='480.89' x2='480.89' y1='0.00' y2='375.00'/>
        <line x1='486.56' x2='486.56' y1='0.00' y2='375.00'/>
        <line x1='492.23' x2='492.23' y1='0.00' y2='375.00'/>
        <line x1='497.91' x2='497.91' y1='0.00' y2='375.00'/>
        <line x1='503.58' x2='503.58' y1='0.00' y2='375.00'/>
        <line x1='509.25' x2='509.25' y1='0.00' y2='375.00'/>
        <line x1='514.92' x2='514.92' y1='0.00' y2='375.00'/>
        <line x1='520.59' x2='520.59' y1='0.00' y2='375.00'/>
        <line x1='526.27' x2='526.27' y1='0.00' y2='375.00'/>
        <line x1='531.94' x2='531.94' y1='0.00' y2='375.00'/>
        <line x1='537.61' x2='537.61' y1='0.00' y2='375.00'/>
        <line x1='543.28' x2='543.28' y1='0.00' y2='375.00'/>
        <line x1='548.95' x2='548.95' y1='0.00' y2='375.00'/>
        <line x1='554.63' x2='554.63' y1='0.00' y2='375.00'/>
        <line x1='560.30' x2='560.30' y1='0.00' y2='375.00'/>
        <line x1='565.97' x2='565.97' y1='0.00' y2='375.00'/>
        <line x1='571.64' x2='571.64' y1='0.00' y2='375.00'/>
        <line x1='577.31' x2='577.31' y1='0.00' y2='375.00'/>
        <line x1='582.98' x2='582.98' y1='0.00' y2='375.00'/>
        <line x1='588.66' x2='588.66' y1='0.00' y2='375.00'/>
        <line x1='594.33' x2='594.33' y1='0.00' y2='375.00'/>
        <line x1='600.00' x2='600.00' y1='0.00' y2='375.00'/>
      </g>
      <g fill='none' id='default' stroke='black'>
        <text class='titletext' style='fill: gray;stroke: none;font-family: Arial, Helvetica, sans-serif;;font-size: 24px;font-weight: bold;' x='42' y='20'>Кзыл-Сай вх</text>
      </g>
      <g fill='none' id='default' stroke='black'>
        <polyline id='lineitem0' points='40.0,206.3 41.9,205.3 43.8,204.3 45.7,203.3 47.6,202.3 49.5,201.4 51.3,200.4 53.2,199.5 55.1,198.6 57.0,197.7 58.9,196.9 60.8,196.1 62.7,195.3 64.6,194.8 66.5,194.4 68.4,194.3 70.2,194.6 72.1,195.2 74.0,196.3 75.9,197.8 77.8,200.0 79.7,202.8 81.6,206.3 83.5,210.4 85.4,215.2 87.3,220.3 89.2,225.6 91.0,231.0 92.9,236.1 94.8,240.9 96.7,245.2 98.6,248.7 100.5,251.3 102.4,252.9 104.3,253.1 106.2,252.0 108.1,249.6 110.0,246.2 111.8,242.0 113.7,237.2 115.6,232.1 117.5,226.8 119.4,221.7 121.3,216.8 123.2,212.5 125.1,208.9 127.0,206.3 128.9,204.8 130.7,204.3 132.6,204.8 134.5,206.0 136.4,207.8 138.3,210.1 140.2,212.7 142.1,215.4 144.0,218.2 145.9,220.8 147.8,223.1 149.7,225.0 151.5,226.4 153.4,227.2 155.3,227.6 157.2,227.7 159.1,227.5 161.0,227.1 162.9,226.6 164.8,226.1 166.7,225.6 168.6,225.2 170.5,224.9 172.3,225.0 174.2,225.4 176.1,226.0 178.0,226.9 179.9,227.9 181.8,229.0 183.7,230.2 185.6,231.3 187.5,232.3 189.4,233.2 191.2,233.9 193.1,234.3 195.0,234.4 196.9,234.1 198.8,233.4 200.7,232.4 202.6,231.1 204.5,229.6 206.4,227.9 208.3,226.0 210.2,224.0 212.0,222.0 213.9,219.8 215.8,217.7 217.7,215.6 219.6,213.6 221.5,211.7 223.4,209.9 225.3,208.3 227.2,207.0 229.1,205.8 231.0,205.0 232.8,204.5 234.7,204.3 236.6,204.5 238.5,205.2 240.4,206.3 242.3,207.8 244.2,209.7 246.1,211.8 248.0,214.0 249.9,216.1 251.7,217.9 253.6,219.3 255.5,220.2 257.4,220.5 259.3,219.9 261.2,218.3 263.1,215.6 265.0,211.8 266.9,206.9 268.8,201.4 270.7,195.5 272.5,189.4 274.4,183.6 276.3,178.2 278.2,173.6 280.1,170.1 282.0,167.9 283.9,167.4 285.8,168.7 287.7,172.3 289.6,177.6 291.5,184.6 293.3,192.8 295.2,201.8 297.1,211.5 299.0,221.3 300.9,231.1 302.8,240.4 304.7,249.0 306.6,256.5 308.5,262.5 310.4,266.9 312.2,269.7 314.1,271.3 316.0,271.7 317.9,271.3 319.8,270.2 321.7,268.7 323.6,267.0 325.5,265.3 327.4,263.8 329.3,262.8 331.2,262.5 333.0,263.0 334.9,264.3 336.8,266.2 338.7,268.7 340.6,271.5 342.5,274.5 344.4,277.7 346.3,280.8 348.2,283.8 350.1,286.6 352.0,288.9 353.8,290.6 355.7,291.7 357.6,292.2 359.5,292.1 361.4,291.5 363.3,290.3 365.2,288.7 367.1,286.6 369.0,284.1 370.9,281.3 372.7,278.2 374.6,274.8 376.5,271.2 378.4,267.4 380.3,263.5 382.2,259.4 384.1,255.3 386.0,251.2 387.9,247.1 389.8,243.0 391.7,239.1 393.5,235.2 395.4,231.6 397.3,228.2 399.2,225.0 401.1,222.1 403.0,219.6 404.9,217.4 406.8,215.5 408.7,214.0 410.6,212.9 412.5,212.3 414.3,212.0 416.2,212.2 418.1,212.9 420.0,214.0 421.9,215.6 423.8,217.8 425.7,220.3 427.6,223.1 429.5,226.1 431.4,229.2 433.2,232.3 435.1,235.2 437.0,237.9 438.9,240.2 440.8,242.0 442.7,243.2 444.6,243.8 446.5,243.5 448.4,242.7 450.3,241.3 452.2,239.6 454.0,237.8 455.9,236.0 457.8,234.4 459.7,233.0 461.6,232.2 463.5,232.1 465.4,232.7 467.3,234.4 469.2,237.1 471.1,240.9 473.0,245.4 474.8,250.7 476.7,256.5 478.6,262.8 480.5,269.2 482.4,275.8 484.3,282.3 486.2,288.6 488.1,294.6 490.0,300.0 491.9,304.8 493.7,308.9 495.6,312.4 497.5,315.1 499.4,317.1 501.3,318.4 503.2,318.9 505.1,318.6 507.0,317.5 508.9,315.7 510.8,312.9 512.7,309.4 514.5,305.0 516.4,299.8 518.3,294.0 520.2,287.8 522.1,281.1 524.0,274.2 525.9,267.2 527.8,260.1 529.7,253.2 531.6,246.5 533.5,240.2 535.3,234.4 537.2,229.1 558.0,196.9 ' style='stroke: blue; stroke-width: 2;'/>
      </g>
      <g fill='none' id='default' stroke='black'>
        <g fill='none' id='legendpanel_mini' stroke='black'>
          <rect class='legendpanel' height='15' style='fill: white;fill-opacity: 0.5;' width='150' x='446' y='10'/>
          <a xlink:href='javascript:void(0);' target='_top'>
            <rect fill='white' gerbiltooltip1='Click to show a detailed legend' height='5' onclick='showDetailedLegend();' stroke='none' width='5' x='441' y='10'/>
          </a>
          <a xlink:href='javascript:void(0);' target='_top'>
            <text font-size='9' gerbiltooltip1='Click to show a detailed legend' onclick='showDetailedLegend();' stroke='#DDDDDD' x='439' y='15'>+</text>
          </a>
          <a xlink:href='javascript:void(0);' target='_top'>
            <rect fill='white' gerbiltooltip1='Click to move legend to left side' height='5' onclick='shiftLegend(-396);' stroke='none' width='5' x='441' y='25'/>
          </a>
          <a xlink:href='javascript:void(0);' target='_top'>
            <text font-size='9' gerbiltooltip1='Click to move legend to left side' onclick='shiftLegend(-396);' stroke='#DDDDDD' x='439' y='25'>&lt;</text>
          </a>
          <a xlink:href='javascript:void(0);' target='_top'>
            <rect fill='white' gerbiltooltip1='Click to move legend to right side' height='5' onclick='shiftLegend(0);' stroke='none' width='5' x='441' y='35'/>
          </a>
          <a xlink:href='javascript:void(0);' target='_top'>
            <text font-size='9' gerbiltooltip1='Click to move legend to right side' onclick='shiftLegend(0);' stroke='#DDDDDD' x='439' y='35'>&gt;</text>
          </a>
          <circle cx='455' cy='17' fill='gray' id='lbx0' onclick='ToggleVisibility(0)' r='4' stroke='none'/>
          <rect height='10' id='item0' style='stroke:blue;fill: blue;' width='10' x='466' y='12'/>
          <text class='legendtext' gerbiltooltip1='{:title=&gt;&quot;\u041A\u0437\u044B\u043B-\u0421\u0430\u0439 \u0432\u0445&quot;}' gerbiltooltip2='Latest Value = 2.9' onmouseout='OpacityUp(evt)' onmouseover='OpacityDown(evt)' style='font-family: Verdana, Geneva, Arial, Helvetica, sans-serif;font-size: 10px;fill: black;stroke: none;' title='Кзыл-Сай вх' x='481' y='20'/>
        </g>
      </g>
      <g fill='none' id='default' stroke='black'>
        <g fill='none' id='legendpanel_detail' stroke='black' visibility='hidden'>
          <rect class='legendpanel' height='31' style='fill: white;fill-opacity: 0.5;' width='450' x='146' y='10'/>
          <a xlink:href='javascript:void(0);' target='_top'>
            <rect fill='white' gerbiltooltip1='Click to show compact legend' height='5' onclick='showMiniLegend();' stroke='none' width='5' x='141' y='10'/>
          </a>
          <a xlink:href='javascript:void(0);' target='_top'>
            <text font-size='9' gerbiltooltip1='Click to show compact legend' onclick='showMiniLegend();' stroke='#DDDDDD' x='142' y='15'>&gt;</text>
          </a>
          <text class='legendstats' xml:space='preserve' x='278' y='20'>      Max      Min      Avg   Latest</text>
          <rect height='10' id='item0' style='stroke:blue;fill: blue;' width='10' x='148' y='28'/>
          <text class='legendtext' gerbiltooltip1='{:title=&gt;&quot;\u041A\u0437\u044B\u043B-\u0421\u0430\u0439 \u0432\u0445&quot;}' gerbiltooltip2='Latest Value = 2.9' onmouseout='OpacityUp(evt)' onmouseover='OpacityDown(evt)' style='font-family: Verdana, Geneva, Arial, Helvetica, sans-serif;font-size: 10px;fill: black;stroke: none;' title='Кзыл-Сай вх' x='163' y='36'/>
          <text class='legendstats' xml:space='preserve' x='278' y='36'>      3.2      1.6      2.5      2.9</text>
        </g>
      </g>
      <g fill='none' id='default' stroke='black'>
        <rect class='axispanel' height='375' style='fill: lightgray;' width='40' x='0' y='0'/>
        <text class='axislabel' style='font-family: sans;font-size: 10px;fill: black;stroke: none;' text-anchor='end' x='36' y='379.0'>1</text>
        <line class='axistickmajor' style='stroke-width: 2;stroke: black;' x1='39.00' x2='41.00' y1='375.00' y2='375.00'/>
        <text class='axislabel' style='font-family: sans;font-size: 10px;fill: black;stroke: none;' text-anchor='end' x='36' y='285.25'>2</text>
        <line class='axistickmajor' style='stroke-width: 2;stroke: black;' x1='39.00' x2='41.00' y1='281.25' y2='281.25'/>
        <text class='axislabel' style='font-family: sans;font-size: 10px;fill: black;stroke: none;' text-anchor='end' x='36' y='191.5'>3</text>
        <line class='axistickmajor' style='stroke-width: 2;stroke: black;' x1='39.00' x2='41.00' y1='187.50' y2='187.50'/>
        <text class='axislabel' style='font-family: sans;font-size: 10px;fill: black;stroke: none;' text-anchor='end' x='36' y='97.75'>4</text>
        <line class='axistickmajor' style='stroke-width: 2;stroke: black;' x1='39.00' x2='41.00' y1='93.75' y2='93.75'/>
        <text class='axislabel' style='font-family: sans;font-size: 10px;fill: black;stroke: none;' text-anchor='end' x='36' y='10'>5</text>
        <line class='axistickmajor' style='stroke-width: 2;stroke: black;' x1='39.00' x2='41.00' y1='0.00' y2='0.00'/>
      </g>
      <g fill='none' id='default' stroke='black'>
        <rect class='axispanel' height='25' style='fill: lightgray;' width='560' x='40' y='375'/>
        <text class='axislabel' style='font-family: sans;font-size: 10px;fill: black;stroke: none;' text-anchor='middle' x='55.50303848750844' y='386'>10:00</text>
        <line class='axistickmajor' style='stroke-width: 2;stroke: black;' x1='55.50' x2='55.50' y1='373.00' y2='376.00'/>
        <text class='axislabel' style='font-family: sans;font-size: 10px;fill: black;stroke: none;' text-anchor='middle' x='100.87778528021607' y='386'>12:00</text>
        <line class='axistickmajor' style='stroke-width: 2;stroke: black;' x1='100.88' x2='100.88' y1='373.00' y2='376.00'/>
        <text class='axislabel' style='font-family: sans;font-size: 10px;fill: black;stroke: none;' text-anchor='middle' x='146.2525320729237' y='386'>14:00</text>
        <line class='axistickmajor' style='stroke-width: 2;stroke: black;' x1='146.25' x2='146.25' y1='373.00' y2='376.00'/>
        <text class='axislabel' style='font-family: sans;font-size: 10px;fill: black;stroke: none;' text-anchor='middle' x='191.62727886563133' y='386'>16:00</text>
        <line class='axistickmajor' style='stroke-width: 2;stroke: black;' x1='191.63' x2='191.63' y1='373.00' y2='376.00'/>
        <text class='axislabel' style='font-family: sans;font-size: 10px;fill: black;stroke: none;' text-anchor='middle' x='237.00202565833897' y='386'>18:00</text>
        <line class='axistickmajor' style='stroke-width: 2;stroke: black;' x1='237.00' x2='237.00' y1='373.00' y2='376.00'/>
        <text class='axislabel' style='font-family: sans;font-size: 10px;fill: black;stroke: none;' text-anchor='middle' x='282.3767724510466' y='386'>20:00</text>
        <line class='axistickmajor' style='stroke-width: 2;stroke: black;' x1='282.38' x2='282.38' y1='373.00' y2='376.00'/>
        <text class='axislabel' style='font-family: sans;font-size: 10px;fill: black;stroke: none;' text-anchor='middle' x='327.7515192437542' y='386'>22:00</text>
        <line class='axistickmajor' style='stroke-width: 2;stroke: black;' x1='327.75' x2='327.75' y1='373.00' y2='376.00'/>
        <text class='axislabel' style='font-family: sans;font-size: 10px;fill: black;stroke: none;' text-anchor='middle' x='373.12626603646186' y='386'>Sep-20</text>
        <line class='axistickmajor' style='stroke-width: 2;stroke: black;' x1='373.13' x2='373.13' y1='373.00' y2='376.00'/>
        <text class='axislabel' style='font-family: sans;font-size: 10px;fill: black;stroke: none;' text-anchor='middle' x='418.50101282916944' y='386'>02:00</text>
        <line class='axistickmajor' style='stroke-width: 2;stroke: black;' x1='418.50' x2='418.50' y1='373.00' y2='376.00'/>
        <text class='axislabel' style='font-family: sans;font-size: 10px;fill: black;stroke: none;' text-anchor='middle' x='463.8757596218771' y='386'>04:00</text>
        <line class='axistickmajor' style='stroke-width: 2;stroke: black;' x1='463.88' x2='463.88' y1='373.00' y2='376.00'/>
        <text class='axislabel' style='font-family: sans;font-size: 10px;fill: black;stroke: none;' text-anchor='middle' x='509.2505064145847' y='386'>06:00</text>
        <line class='axistickmajor' style='stroke-width: 2;stroke: black;' x1='509.25' x2='509.25' y1='373.00' y2='376.00'/>
        <text class='axislabel' style='font-family: sans;font-size: 10px;fill: black;stroke: none;' text-anchor='middle' x='554.6252532072924' y='386'>08:00</text>
        <line class='axistickmajor' style='stroke-width: 2;stroke: black;' x1='554.63' x2='554.63' y1='373.00' y2='376.00'/>
        <text class='axislabel' style='font-family: sans;font-size: 10px;fill: black;stroke: none;' text-anchor='middle' x='590' y='386'>10:00</text>
        <line class='axistickmajor' style='stroke-width: 2;stroke: black;' x1='590.00' x2='590.00' y1='373.00' y2='376.00'/>
        <text class='axislabelt0' style='font-family: sans;font-size: 8px;fill: black;stroke: none;' x='20' y='397'>2013-09-19 09:19:00 +0600</text>
        <line class='axistickmajor' style='stroke-width: 2;stroke: black;' x1='40.00' x2='40.00' y1='375.00' y2='377.00'/>
      </g>
    </g>
  </g>
</svg>
