<?xml version='1.0' encoding='UTF-8'?>
<!DOCTYPE svg PUBLIC "-//W3C//DTD SVG 1.1//EN" "http://www.w3.org/Graphics/SVG/1.1/DTD/svg11.dtd"><svg height='400' version='1.1' width='600' xmlns:xlink='http://www.w3.org/1999/xlink' xmlns='http://www.w3.org/2000/svg'>
  <defs>
    <linearGradient id='vertgrad' x1='0%' x2='0%' y1='0%' y2='100%'>
      <stop offset='0%' style='stop-color:rgb(255,255,255)'/>
      <stop offset='100%' style='stop-color:rgb(192,192,192)'/>
    </linearGradient>
  </defs>
  <g id='GerbilSVGGraph'>
    <g fill='none' id='Gerbil_Root_Window' stroke='black'>
      <g fill='none' id='default' stroke='black'>
        <rect class='surfaceback' height='375' style='fill: url(#vertgrad);' width='560' x='40' y='0'/>
      </g>
      <g fill='none' id='default' stroke='black'>
        <g class='gridlineh' fill='none' id='hgrid' stroke='black' style='stroke-width: 1;stroke: lightgray;'>
          <line x1='40.00' x2='600.00' y1='375.00' y2='375.00'/>
          <line x1='40.00' x2='600.00' y1='300.00' y2='300.00'/>
          <line x1='40.00' x2='600.00' y1='225.00' y2='225.00'/>
          <line x1='40.00' x2='600.00' y1='150.00' y2='150.00'/>
          <line x1='40.00' x2='600.00' y1='75.00' y2='75.00'/>
          <line x1='40.00' x2='600.00' y1='0.00' y2='0.00'/>
        </g>
      </g>
      <g class='gridlinesub' fill='none' id='hgridsub' stroke='black'>
      </g>
      <g class='gridlinev' fill='none' id='vgrid' stroke='black' style='stroke-width: 1;stroke: lightgray;'>
        <line x1='9.33' x2='9.33' y1='0.00' y2='375.00'/>
        <line x1='54.77' x2='54.77' y1='0.00' y2='375.00'/>
        <line x1='100.20' x2='100.20' y1='0.00' y2='375.00'/>
        <line x1='145.64' x2='145.64' y1='0.00' y2='375.00'/>
        <line x1='191.08' x2='191.08' y1='0.00' y2='375.00'/>
        <line x1='236.51' x2='236.51' y1='0.00' y2='375.00'/>
        <line x1='281.95' x2='281.95' y1='0.00' y2='375.00'/>
        <line x1='327.38' x2='327.38' y1='0.00' y2='375.00'/>
        <line x1='372.82' x2='372.82' y1='0.00' y2='375.00'/>
        <line x1='418.26' x2='418.26' y1='0.00' y2='375.00'/>
        <line x1='463.69' x2='463.69' y1='0.00' y2='375.00'/>
        <line x1='509.13' x2='509.13' y1='0.00' y2='375.00'/>
        <line x1='554.56' x2='554.56' y1='0.00' y2='375.00'/>
        <line x1='600.00' x2='600.00' y1='0.00' y2='375.00'/>
      </g>
      <g class='gridlinesub' fill='none' id='vgridsub' stroke='black'>
        <line x1='9.33' x2='9.33' y1='0.00' y2='375.00'/>
        <line x1='15.01' x2='15.01' y1='0.00' y2='375.00'/>
        <line x1='20.69' x2='20.69' y1='0.00' y2='375.00'/>
        <line x1='26.37' x2='26.37' y1='0.00' y2='375.00'/>
        <line x1='32.05' x2='32.05' y1='0.00' y2='375.00'/>
        <line x1='37.73' x2='37.73' y1='0.00' y2='375.00'/>
        <line x1='43.41' x2='43.41' y1='0.00' y2='375.00'/>
        <line x1='49.09' x2='49.09' y1='0.00' y2='375.00'/>
        <line x1='54.77' x2='54.77' y1='0.00' y2='375.00'/>
        <line x1='60.45' x2='60.45' y1='0.00' y2='375.00'/>
        <line x1='66.13' x2='66.13' y1='0.00' y2='375.00'/>
        <line x1='71.81' x2='71.81' y1='0.00' y2='375.00'/>
        <line x1='77.48' x2='77.48' y1='0.00' y2='375.00'/>
        <line x1='83.16' x2='83.16' y1='0.00' y2='375.00'/>
        <line x1='88.84' x2='88.84' y1='0.00' y2='375.00'/>
        <line x1='94.52' x2='94.52' y1='0.00' y2='375.00'/>
        <line x1='100.20' x2='100.20' y1='0.00' y2='375.00'/>
        <line x1='105.88' x2='105.88' y1='0.00' y2='375.00'/>
        <line x1='111.56' x2='111.56' y1='0.00' y2='375.00'/>
        <line x1='117.24' x2='117.24' y1='0.00' y2='375.00'/>
        <line x1='122.92' x2='122.92' y1='0.00' y2='375.00'/>
        <line x1='128.60' x2='128.60' y1='0.00' y2='375.00'/>
        <line x1='134.28' x2='134.28' y1='0.00' y2='375.00'/>
        <line x1='139.96' x2='139.96' y1='0.00' y2='375.00'/>
        <line x1='145.64' x2='145.64' y1='0.00' y2='375.00'/>
        <line x1='151.32' x2='151.32' y1='0.00' y2='375.00'/>
        <line x1='157.00' x2='157.00' y1='0.00' y2='375.00'/>
        <line x1='162.68' x2='162.68' y1='0.00' y2='375.00'/>
        <line x1='168.36' x2='168.36' y1='0.00' y2='375.00'/>
        <line x1='174.04' x2='174.04' y1='0.00' y2='375.00'/>
        <line x1='179.72' x2='179.72' y1='0.00' y2='375.00'/>
        <line x1='185.40' x2='185.40' y1='0.00' y2='375.00'/>
        <line x1='191.08' x2='191.08' y1='0.00' y2='375.00'/>
        <line x1='196.75' x2='196.75' y1='0.00' y2='375.00'/>
        <line x1='202.43' x2='202.43' y1='0.00' y2='375.00'/>
        <line x1='208.11' x2='208.11' y1='0.00' y2='375.00'/>
        <line x1='213.79' x2='213.79' y1='0.00' y2='375.00'/>
        <line x1='219.47' x2='219.47' y1='0.00' y2='375.00'/>
        <line x1='225.15' x2='225.15' y1='0.00' y2='375.00'/>
        <line x1='230.83' x2='230.83' y1='0.00' y2='375.00'/>
        <line x1='236.51' x2='236.51' y1='0.00' y2='375.00'/>
        <line x1='242.19' x2='242.19' y1='0.00' y2='375.00'/>
        <line x1='247.87' x2='247.87' y1='0.00' y2='375.00'/>
        <line x1='253.55' x2='253.55' y1='0.00' y2='375.00'/>
        <line x1='259.23' x2='259.23' y1='0.00' y2='375.00'/>
        <line x1='264.91' x2='264.91' y1='0.00' y2='375.00'/>
        <line x1='270.59' x2='270.59' y1='0.00' y2='375.00'/>
        <line x1='276.27' x2='276.27' y1='0.00' y2='375.00'/>
        <line x1='281.95' x2='281.95' y1='0.00' y2='375.00'/>
        <line x1='287.63' x2='287.63' y1='0.00' y2='375.00'/>
        <line x1='293.31' x2='293.31' y1='0.00' y2='375.00'/>
        <line x1='298.99' x2='298.99' y1='0.00' y2='375.00'/>
        <line x1='304.67' x2='304.67' y1='0.00' y2='375.00'/>
        <line x1='310.34' x2='310.34' y1='0.00' y2='375.00'/>
        <line x1='316.02' x2='316.02' y1='0.00' y2='375.00'/>
        <line x1='321.70' x2='321.70' y1='0.00' y2='375.00'/>
        <line x1='327.38' x2='327.38' y1='0.00' y2='375.00'/>
        <line x1='333.06' x2='333.06' y1='0.00' y2='375.00'/>
        <line x1='338.74' x2='338.74' y1='0.00' y2='375.00'/>
        <line x1='344.42' x2='344.42' y1='0.00' y2='375.00'/>
        <line x1='350.10' x2='350.10' y1='0.00' y2='375.00'/>
        <line x1='355.78' x2='355.78' y1='0.00' y2='375.00'/>
        <line x1='361.46' x2='361.46' y1='0.00' y2='375.00'/>
        <line x1='367.14' x2='367.14' y1='0.00' y2='375.00'/>
        <line x1='372.82' x2='372.82' y1='0.00' y2='375.00'/>
        <line x1='378.50' x2='378.50' y1='0.00' y2='375.00'/>
        <line x1='384.18' x2='384.18' y1='0.00' y2='375.00'/>
        <line x1='389.86' x2='389.86' y1='0.00' y2='375.00'/>
        <line x1='395.54' x2='395.54' y1='0.00' y2='375.00'/>
        <line x1='401.22' x2='401.22' y1='0.00' y2='375.00'/>
        <line x1='406.90' x2='406.90' y1='0.00' y2='375.00'/>
        <line x1='412.58' x2='412.58' y1='0.00' y2='375.00'/>
        <line x1='418.26' x2='418.26' y1='0.00' y2='375.00'/>
        <line x1='423.94' x2='423.94' y1='0.00' y2='375.00'/>
        <line x1='429.61' x2='429.61' y1='0.00' y2='375.00'/>
        <line x1='435.29' x2='435.29' y1='0.00' y2='375.00'/>
        <line x1='440.97' x2='440.97' y1='0.00' y2='375.00'/>
        <line x1='446.65' x2='446.65' y1='0.00' y2='375.00'/>
        <line x1='452.33' x2='452.33' y1='0.00' y2='375.00'/>
        <line x1='458.01' x2='458.01' y1='0.00' y2='375.00'/>
        <line x1='463.69' x2='463.69' y1='0.00' y2='375.00'/>
        <line x1='469.37' x2='469.37' y1='0.00' y2='375.00'/>
        <line x1='475.05' x2='475.05' y1='0.00' y2='375.00'/>
        <line x1='480.73' x2='480.73' y1='0.00' y2='375.00'/>
        <line x1='486.41' x2='486.41' y1='0.00' y2='375.00'/>
        <line x1='492.09' x2='492.09' y1='0.00' y2='375.00'/>
        <line x1='497.77' x2='497.77' y1='0.00' y2='375.00'/>
        <line x1='503.45' x2='503.45' y1='0.00' y2='375.00'/>
        <line x1='509.13' x2='509.13' y1='0.00' y2='375.00'/>
        <line x1='514.81' x2='514.81' y1='0.00' y2='375.00'/>
        <line x1='520.49' x2='520.49' y1='0.00' y2='375.00'/>
        <line x1='526.17' x2='526.17' y1='0.00' y2='375.00'/>
        <line x1='531.85' x2='531.85' y1='0.00' y2='375.00'/>
        <line x1='537.53' x2='537.53' y1='0.00' y2='375.00'/>
        <line x1='543.20' x2='543.20' y1='0.00' y2='375.00'/>
        <line x1='548.88' x2='548.88' y1='0.00' y2='375.00'/>
        <line x1='554.56' x2='554.56' y1='0.00' y2='375.00'/>
        <line x1='560.24' x2='560.24' y1='0.00' y2='375.00'/>
        <line x1='565.92' x2='565.92' y1='0.00' y2='375.00'/>
        <line x1='571.60' x2='571.60' y1='0.00' y2='375.00'/>
        <line x1='577.28' x2='577.28' y1='0.00' y2='375.00'/>
        <line x1='582.96' x2='582.96' y1='0.00' y2='375.00'/>
        <line x1='588.64' x2='588.64' y1='0.00' y2='375.00'/>
        <line x1='594.32' x2='594.32' y1='0.00' y2='375.00'/>
        <line x1='600.00' x2='600.00' y1='0.00' y2='375.00'/>
      </g>
      <g fill='none' id='default' stroke='black'>
        <text class='titletext' style='fill: gray;stroke: none;font-family: Arial, Helvetica, sans-serif;;font-size: 24px;font-weight: bold;' x='42' y='20'>пл. Аль-Фараби 1а</text>
      </g>
      <g fill='none' id='default' stroke='black'>
        <polyline id='lineitem0' points='40.0,140.6 41.9,143.6 43.8,146.5 45.7,149.2 47.6,151.8 49.5,154.2 51.4,156.3 53.3,158.0 55.1,159.4 57.0,160.3 58.9,160.7 60.8,160.8 62.7,160.5 64.6,159.9 66.5,159.0 68.4,157.9 70.3,156.6 72.2,155.1 74.1,153.5 76.0,151.8 77.9,150.0 79.8,148.2 81.6,146.4 83.5,144.7 85.4,143.2 87.3,141.8 89.2,140.6 91.1,139.7 93.0,139.0 94.9,138.8 96.8,138.9 98.7,139.5 100.6,140.6 102.5,142.2 104.4,144.3 106.3,146.7 108.2,149.4 110.0,152.3 111.9,155.2 113.8,158.1 115.7,160.9 117.6,163.4 119.5,165.6 121.4,167.4 123.3,168.7 125.2,169.5 127.1,169.7 129.0,169.4 130.9,168.8 132.8,167.9 134.7,166.7 136.6,165.4 138.4,164.0 140.3,162.7 142.2,161.4 144.1,160.3 146.0,159.4 147.9,158.8 149.8,158.4 151.7,158.3 153.6,158.4 155.5,158.5 157.4,158.8 159.3,159.1 161.2,159.3 163.1,159.6 164.9,159.7 166.8,159.6 168.7,159.4 170.6,158.9 172.5,158.2 174.4,157.4 176.3,156.5 178.2,155.4 180.1,154.4 182.0,153.4 183.9,152.4 185.8,151.5 187.7,150.8 189.6,150.3 191.5,150.0 193.3,150.0 195.2,150.2 197.1,150.6 199.0,151.2 200.9,151.9 202.8,152.8 204.7,153.7 206.6,154.6 208.5,155.6 210.4,156.5 212.3,157.4 214.2,158.2 216.1,158.9 218.0,159.4 219.9,159.7 221.7,159.9 223.6,159.9 225.5,159.8 227.4,159.7 229.3,159.6 231.2,159.4 233.1,159.3 235.0,159.3 236.9,159.4 238.8,159.6 240.7,159.9 242.6,160.4 244.5,160.9 246.4,161.6 248.2,162.4 250.1,163.3 252.0,164.2 253.9,165.3 255.8,166.4 257.7,167.5 259.6,168.7 261.5,170.0 263.4,171.3 265.3,172.4 267.2,173.4 269.1,174.3 271.0,174.8 272.9,175.0 274.8,174.8 276.6,174.2 278.5,173.0 280.4,171.2 282.3,168.7 284.2,165.6 286.1,162.0 288.0,158.2 289.9,154.3 291.8,150.6 293.7,147.4 295.6,144.8 297.5,143.1 299.4,142.6 301.3,143.4 303.2,145.8 305.0,150.0 306.9,156.2 308.8,164.1 310.7,173.3 312.6,183.6 314.5,194.6 316.4,205.9 318.3,217.3 320.2,228.3 322.1,238.7 324.0,248.1 325.9,256.1 327.8,262.5 329.7,266.9 331.5,269.5 333.4,270.5 335.3,270.0 337.2,268.2 339.1,265.3 341.0,261.5 342.9,257.0 344.8,252.0 346.7,246.6 348.6,241.0 350.5,235.5 352.4,230.1 354.3,225.0 356.2,220.1 358.1,215.3 359.9,210.8 361.8,206.4 363.7,202.2 365.6,198.2 367.5,194.2 369.4,190.4 371.3,186.7 373.2,183.0 375.1,179.5 377.0,175.9 378.9,172.5 380.8,169.0 382.7,165.6 384.6,162.1 386.5,158.7 388.3,155.2 390.2,151.7 392.1,148.1 394.0,144.4 395.9,140.6 397.8,136.8 399.7,132.8 401.6,128.8 403.5,124.8 405.4,120.8 407.3,116.8 409.2,112.8 411.1,108.9 413.0,105.1 414.8,101.4 416.7,97.8 418.6,94.4 420.5,91.2 422.4,88.2 424.3,85.3 426.2,82.6 428.1,80.1 430.0,77.7 431.9,75.4 433.8,73.3 435.7,71.3 437.6,69.4 439.5,67.6 441.4,66.0 443.2,64.3 445.1,62.9 447.0,61.5 448.9,60.4 450.8,59.6 452.7,59.1 454.6,58.9 456.5,59.1 458.4,59.8 460.3,61.0 462.2,62.8 464.1,65.1 466.0,68.0 467.9,71.6 469.7,75.5 471.6,79.8 473.5,84.3 475.4,88.9 477.3,93.5 479.2,97.9 481.1,102.1 483.0,106.0 484.9,109.3 486.8,112.0 488.7,114.1 490.6,115.4 492.5,116.2 494.4,116.6 496.3,116.5 498.1,116.1 500.0,115.5 501.9,114.8 503.8,114.0 505.7,113.3 507.6,112.8 509.5,112.5 511.4,112.6 513.3,112.9 515.2,113.6 517.1,114.6 519.0,115.9 520.9,117.4 522.8,119.2 524.7,121.1 526.5,123.3 528.4,125.6 530.3,128.1 532.2,130.7 534.1,133.4 555.3,168.7 ' style='stroke: blue; stroke-width: 2;'/>
      </g>
      <g fill='none' id='default' stroke='black'>
        <g fill='none' id='legendpanel_mini' stroke='black'>
          <rect class='legendpanel' height='15' style='fill: white;fill-opacity: 0.5;' width='150' x='446' y='10'/>
          <a xlink:href='javascript:void(0);' target='_top'>
            <rect fill='white' gerbiltooltip1='Click to show a detailed legend' height='5' onclick='showDetailedLegend();' stroke='none' width='5' x='441' y='10'/>
          </a>
          <a xlink:href='javascript:void(0);' target='_top'>
            <text font-size='9' gerbiltooltip1='Click to show a detailed legend' onclick='showDetailedLegend();' stroke='#DDDDDD' x='439' y='15'>+</text>
          </a>
          <a xlink:href='javascript:void(0);' target='_top'>
            <rect fill='white' gerbiltooltip1='Click to move legend to left side' height='5' onclick='shiftLegend(-396);' stroke='none' width='5' x='441' y='25'/>
          </a>
          <a xlink:href='javascript:void(0);' target='_top'>
            <text font-size='9' gerbiltooltip1='Click to move legend to left side' onclick='shiftLegend(-396);' stroke='#DDDDDD' x='439' y='25'>&lt;</text>
          </a>
          <a xlink:href='javascript:void(0);' target='_top'>
            <rect fill='white' gerbiltooltip1='Click to move legend to right side' height='5' onclick='shiftLegend(0);' stroke='none' width='5' x='441' y='35'/>
          </a>
          <a xlink:href='javascript:void(0);' target='_top'>
            <text font-size='9' gerbiltooltip1='Click to move legend to right side' onclick='shiftLegend(0);' stroke='#DDDDDD' x='439' y='35'>&gt;</text>
          </a>
          <circle cx='455' cy='17' fill='gray' id='lbx0' onclick='ToggleVisibility(0)' r='4' stroke='none'/>
          <rect height='10' id='item0' style='stroke:blue;fill: blue;' width='10' x='466' y='12'/>
          <text class='legendtext' gerbiltooltip1='{:title=&gt;&quot;\u043F\u043B. \u0410\u043B\u044C-\u0424\u0430\u0440\u0430\u0431\u0438 1\u0430&quot;}' gerbiltooltip2='Latest Value = 3.2' onmouseout='OpacityUp(evt)' onmouseover='OpacityDown(evt)' style='font-family: Verdana, Geneva, Arial, Helvetica, sans-serif;font-size: 10px;fill: black;stroke: none;' title='пл. Аль-Фараби 1а' x='481' y='20'/>
        </g>
      </g>
      <g fill='none' id='default' stroke='black'>
        <g fill='none' id='legendpanel_detail' stroke='black' visibility='hidden'>
          <rect class='legendpanel' height='31' style='fill: white;fill-opacity: 0.5;' width='450' x='146' y='10'/>
          <a xlink:href='javascript:void(0);' target='_top'>
            <rect fill='white' gerbiltooltip1='Click to show compact legend' height='5' onclick='showMiniLegend();' stroke='none' width='5' x='141' y='10'/>
          </a>
          <a xlink:href='javascript:void(0);' target='_top'>
            <text font-size='9' gerbiltooltip1='Click to show compact legend' onclick='showMiniLegend();' stroke='#DDDDDD' x='142' y='15'>&gt;</text>
          </a>
          <text class='legendstats' xml:space='preserve' x='278' y='20'>      Max      Min      Avg   Latest</text>
          <rect height='10' id='item0' style='stroke:blue;fill: blue;' width='10' x='148' y='28'/>
          <text class='legendtext' gerbiltooltip1='{:title=&gt;&quot;\u043F\u043B. \u0410\u043B\u044C-\u0424\u0430\u0440\u0430\u0431\u0438 1\u0430&quot;}' gerbiltooltip2='Latest Value = 3.2' onmouseout='OpacityUp(evt)' onmouseover='OpacityDown(evt)' style='font-family: Verdana, Geneva, Arial, Helvetica, sans-serif;font-size: 10px;fill: black;stroke: none;' title='пл. Аль-Фараби 1а' x='163' y='36'/>
          <text class='legendstats' xml:space='preserve' x='278' y='36'>      4.4      2.1      3.4      3.2</text>
        </g>
      </g>
      <g fill='none' id='default' stroke='black'>
        <rect class='axispanel' height='375' style='fill: lightgray;' width='40' x='0' y='0'/>
        <text class='axislabel' style='font-family: sans;font-size: 10px;fill: black;stroke: none;' text-anchor='end' x='36' y='379.0'>1</text>
        <line class='axistickmajor' style='stroke-width: 2;stroke: black;' x1='39.00' x2='41.00' y1='375.00' y2='375.00'/>
        <text class='axislabel' style='font-family: sans;font-size: 10px;fill: black;stroke: none;' text-anchor='end' x='36' y='285.25'>2</text>
        <line class='axistickmajor' style='stroke-width: 2;stroke: black;' x1='39.00' x2='41.00' y1='281.25' y2='281.25'/>
        <text class='axislabel' style='font-family: sans;font-size: 10px;fill: black;stroke: none;' text-anchor='end' x='36' y='191.5'>3</text>
        <line class='axistickmajor' style='stroke-width: 2;stroke: black;' x1='39.00' x2='41.00' y1='187.50' y2='187.50'/>
        <text class='axislabel' style='font-family: sans;font-size: 10px;fill: black;stroke: none;' text-anchor='end' x='36' y='97.75'>4</text>
        <line class='axistickmajor' style='stroke-width: 2;stroke: black;' x1='39.00' x2='41.00' y1='93.75' y2='93.75'/>
        <text class='axislabel' style='font-family: sans;font-size: 10px;fill: black;stroke: none;' text-anchor='end' x='36' y='10'>5</text>
        <line class='axistickmajor' style='stroke-width: 2;stroke: black;' x1='39.00' x2='41.00' y1='0.00' y2='0.00'/>
      </g>
      <g fill='none' id='default' stroke='black'>
        <rect class='axispanel' height='25' style='fill: lightgray;' width='560' x='40' y='375'/>
        <text class='axislabel' style='font-family: sans;font-size: 10px;fill: black;stroke: none;' text-anchor='middle' x='54.766734279918865' y='386'>10:00</text>
        <line class='axistickmajor' style='stroke-width: 2;stroke: black;' x1='54.77' x2='54.77' y1='373.00' y2='376.00'/>
        <text class='axislabel' style='font-family: sans;font-size: 10px;fill: black;stroke: none;' text-anchor='middle' x='100.20283975659228' y='386'>12:00</text>
        <line class='axistickmajor' style='stroke-width: 2;stroke: black;' x1='100.20' x2='100.20' y1='373.00' y2='376.00'/>
        <text class='axislabel' style='font-family: sans;font-size: 10px;fill: black;stroke: none;' text-anchor='middle' x='145.63894523326573' y='386'>14:00</text>
        <line class='axistickmajor' style='stroke-width: 2;stroke: black;' x1='145.64' x2='145.64' y1='373.00' y2='376.00'/>
        <text class='axislabel' style='font-family: sans;font-size: 10px;fill: black;stroke: none;' text-anchor='middle' x='191.07505070993915' y='386'>16:00</text>
        <line class='axistickmajor' style='stroke-width: 2;stroke: black;' x1='191.08' x2='191.08' y1='373.00' y2='376.00'/>
        <text class='axislabel' style='font-family: sans;font-size: 10px;fill: black;stroke: none;' text-anchor='middle' x='236.5111561866126' y='386'>18:00</text>
        <line class='axistickmajor' style='stroke-width: 2;stroke: black;' x1='236.51' x2='236.51' y1='373.00' y2='376.00'/>
        <text class='axislabel' style='font-family: sans;font-size: 10px;fill: black;stroke: none;' text-anchor='middle' x='281.947261663286' y='386'>20:00</text>
        <line class='axistickmajor' style='stroke-width: 2;stroke: black;' x1='281.95' x2='281.95' y1='373.00' y2='376.00'/>
        <text class='axislabel' style='font-family: sans;font-size: 10px;fill: black;stroke: none;' text-anchor='middle' x='327.38336713995943' y='386'>22:00</text>
        <line class='axistickmajor' style='stroke-width: 2;stroke: black;' x1='327.38' x2='327.38' y1='373.00' y2='376.00'/>
        <text class='axislabel' style='font-family: sans;font-size: 10px;fill: black;stroke: none;' text-anchor='middle' x='372.8194726166329' y='386'>Sep-20</text>
        <line class='axistickmajor' style='stroke-width: 2;stroke: black;' x1='372.82' x2='372.82' y1='373.00' y2='376.00'/>
        <text class='axislabel' style='font-family: sans;font-size: 10px;fill: black;stroke: none;' text-anchor='middle' x='418.25557809330627' y='386'>02:00</text>
        <line class='axistickmajor' style='stroke-width: 2;stroke: black;' x1='418.26' x2='418.26' y1='373.00' y2='376.00'/>
        <text class='axislabel' style='font-family: sans;font-size: 10px;fill: black;stroke: none;' text-anchor='middle' x='463.6916835699797' y='386'>04:00</text>
        <line class='axistickmajor' style='stroke-width: 2;stroke: black;' x1='463.69' x2='463.69' y1='373.00' y2='376.00'/>
        <text class='axislabel' style='font-family: sans;font-size: 10px;fill: black;stroke: none;' text-anchor='middle' x='509.12778904665316' y='386'>06:00</text>
        <line class='axistickmajor' style='stroke-width: 2;stroke: black;' x1='509.13' x2='509.13' y1='373.00' y2='376.00'/>
        <text class='axislabel' style='font-family: sans;font-size: 10px;fill: black;stroke: none;' text-anchor='middle' x='554.5638945233266' y='386'>08:00</text>
        <line class='axistickmajor' style='stroke-width: 2;stroke: black;' x1='554.56' x2='554.56' y1='373.00' y2='376.00'/>
        <text class='axislabel' style='font-family: sans;font-size: 10px;fill: black;stroke: none;' text-anchor='middle' x='590' y='386'>10:00</text>
        <line class='axistickmajor' style='stroke-width: 2;stroke: black;' x1='590.00' x2='590.00' y1='373.00' y2='376.00'/>
        <text class='axislabelt0' style='font-family: sans;font-size: 8px;fill: black;stroke: none;' x='20' y='397'>2013-09-19 09:21:00 +0600</text>
        <line class='axistickmajor' style='stroke-width: 2;stroke: black;' x1='40.00' x2='40.00' y1='375.00' y2='377.00'/>
      </g>
    </g>
  </g>
</svg>
