<?xml version='1.0' encoding='UTF-8'?>
<!DOCTYPE svg PUBLIC "-//W3C//DTD SVG 1.1//EN" "http://www.w3.org/Graphics/SVG/1.1/DTD/svg11.dtd"><svg height='400' version='1.1' width='600' xmlns:xlink='http://www.w3.org/1999/xlink' xmlns='http://www.w3.org/2000/svg'>
  <defs>
    <linearGradient id='vertgrad' x1='0%' x2='0%' y1='0%' y2='100%'>
      <stop offset='0%' style='stop-color:rgb(255,255,255)'/>
      <stop offset='100%' style='stop-color:rgb(192,192,192)'/>
    </linearGradient>
  </defs>
  <g id='GerbilSVGGraph'>
    <g fill='none' id='Gerbil_Root_Window' stroke='black'>
      <g fill='none' id='default' stroke='black'>
        <rect class='surfaceback' height='375' style='fill: url(#vertgrad);' width='560' x='40' y='0'/>
      </g>
      <g fill='none' id='default' stroke='black'>
        <g class='gridlineh' fill='none' id='hgrid' stroke='black' style='stroke-width: 1;stroke: lightgray;'>
          <line x1='40.00' x2='600.00' y1='375.00' y2='375.00'/>
          <line x1='40.00' x2='600.00' y1='337.50' y2='337.50'/>
          <line x1='40.00' x2='600.00' y1='300.00' y2='300.00'/>
          <line x1='40.00' x2='600.00' y1='262.50' y2='262.50'/>
          <line x1='40.00' x2='600.00' y1='225.00' y2='225.00'/>
          <line x1='40.00' x2='600.00' y1='187.50' y2='187.50'/>
          <line x1='40.00' x2='600.00' y1='150.00' y2='150.00'/>
          <line x1='40.00' x2='600.00' y1='112.50' y2='112.50'/>
          <line x1='40.00' x2='600.00' y1='75.00' y2='75.00'/>
          <line x1='40.00' x2='600.00' y1='37.50' y2='37.50'/>
          <line x1='40.00' x2='600.00' y1='0.00' y2='0.00'/>
        </g>
      </g>
      <g class='gridlinesub' fill='none' id='hgridsub' stroke='black'>
      </g>
      <g class='gridlinev' fill='none' id='vgrid' stroke='black' style='stroke-width: 1;stroke: lightgray;'>
        <line x1='8.93' x2='8.93' y1='0.00' y2='375.00'/>
        <line x1='54.40' x2='54.40' y1='0.00' y2='375.00'/>
        <line x1='99.86' x2='99.86' y1='0.00' y2='375.00'/>
        <line x1='145.33' x2='145.33' y1='0.00' y2='375.00'/>
        <line x1='190.80' x2='190.80' y1='0.00' y2='375.00'/>
        <line x1='236.27' x2='236.27' y1='0.00' y2='375.00'/>
        <line x1='281.73' x2='281.73' y1='0.00' y2='375.00'/>
        <line x1='327.20' x2='327.20' y1='0.00' y2='375.00'/>
        <line x1='372.67' x2='372.67' y1='0.00' y2='375.00'/>
        <line x1='418.13' x2='418.13' y1='0.00' y2='375.00'/>
        <line x1='463.60' x2='463.60' y1='0.00' y2='375.00'/>
        <line x1='509.07' x2='509.07' y1='0.00' y2='375.00'/>
        <line x1='554.53' x2='554.53' y1='0.00' y2='375.00'/>
        <line x1='600.00' x2='600.00' y1='0.00' y2='375.00'/>
      </g>
      <g class='gridlinesub' fill='none' id='vgridsub' stroke='black'>
        <line x1='8.93' x2='8.93' y1='0.00' y2='375.00'/>
        <line x1='14.61' x2='14.61' y1='0.00' y2='375.00'/>
        <line x1='20.30' x2='20.30' y1='0.00' y2='375.00'/>
        <line x1='25.98' x2='25.98' y1='0.00' y2='375.00'/>
        <line x1='31.66' x2='31.66' y1='0.00' y2='375.00'/>
        <line x1='37.35' x2='37.35' y1='0.00' y2='375.00'/>
        <line x1='43.03' x2='43.03' y1='0.00' y2='375.00'/>
        <line x1='48.71' x2='48.71' y1='0.00' y2='375.00'/>
        <line x1='54.40' x2='54.40' y1='0.00' y2='375.00'/>
        <line x1='60.08' x2='60.08' y1='0.00' y2='375.00'/>
        <line x1='65.76' x2='65.76' y1='0.00' y2='375.00'/>
        <line x1='71.45' x2='71.45' y1='0.00' y2='375.00'/>
        <line x1='77.13' x2='77.13' y1='0.00' y2='375.00'/>
        <line x1='82.81' x2='82.81' y1='0.00' y2='375.00'/>
        <line x1='88.50' x2='88.50' y1='0.00' y2='375.00'/>
        <line x1='94.18' x2='94.18' y1='0.00' y2='375.00'/>
        <line x1='99.86' x2='99.86' y1='0.00' y2='375.00'/>
        <line x1='105.55' x2='105.55' y1='0.00' y2='375.00'/>
        <line x1='111.23' x2='111.23' y1='0.00' y2='375.00'/>
        <line x1='116.91' x2='116.91' y1='0.00' y2='375.00'/>
        <line x1='122.60' x2='122.60' y1='0.00' y2='375.00'/>
        <line x1='128.28' x2='128.28' y1='0.00' y2='375.00'/>
        <line x1='133.96' x2='133.96' y1='0.00' y2='375.00'/>
        <line x1='139.65' x2='139.65' y1='0.00' y2='375.00'/>
        <line x1='145.33' x2='145.33' y1='0.00' y2='375.00'/>
        <line x1='151.01' x2='151.01' y1='0.00' y2='375.00'/>
        <line x1='156.70' x2='156.70' y1='0.00' y2='375.00'/>
        <line x1='162.38' x2='162.38' y1='0.00' y2='375.00'/>
        <line x1='168.06' x2='168.06' y1='0.00' y2='375.00'/>
        <line x1='173.75' x2='173.75' y1='0.00' y2='375.00'/>
        <line x1='179.43' x2='179.43' y1='0.00' y2='375.00'/>
        <line x1='185.12' x2='185.12' y1='0.00' y2='375.00'/>
        <line x1='190.80' x2='190.80' y1='0.00' y2='375.00'/>
        <line x1='196.48' x2='196.48' y1='0.00' y2='375.00'/>
        <line x1='202.17' x2='202.17' y1='0.00' y2='375.00'/>
        <line x1='207.85' x2='207.85' y1='0.00' y2='375.00'/>
        <line x1='213.53' x2='213.53' y1='0.00' y2='375.00'/>
        <line x1='219.22' x2='219.22' y1='0.00' y2='375.00'/>
        <line x1='224.90' x2='224.90' y1='0.00' y2='375.00'/>
        <line x1='230.58' x2='230.58' y1='0.00' y2='375.00'/>
        <line x1='236.27' x2='236.27' y1='0.00' y2='375.00'/>
        <line x1='241.95' x2='241.95' y1='0.00' y2='375.00'/>
        <line x1='247.63' x2='247.63' y1='0.00' y2='375.00'/>
        <line x1='253.32' x2='253.32' y1='0.00' y2='375.00'/>
        <line x1='259.00' x2='259.00' y1='0.00' y2='375.00'/>
        <line x1='264.68' x2='264.68' y1='0.00' y2='375.00'/>
        <line x1='270.37' x2='270.37' y1='0.00' y2='375.00'/>
        <line x1='276.05' x2='276.05' y1='0.00' y2='375.00'/>
        <line x1='281.73' x2='281.73' y1='0.00' y2='375.00'/>
        <line x1='287.42' x2='287.42' y1='0.00' y2='375.00'/>
        <line x1='293.10' x2='293.10' y1='0.00' y2='375.00'/>
        <line x1='298.78' x2='298.78' y1='0.00' y2='375.00'/>
        <line x1='304.47' x2='304.47' y1='0.00' y2='375.00'/>
        <line x1='310.15' x2='310.15' y1='0.00' y2='375.00'/>
        <line x1='315.83' x2='315.83' y1='0.00' y2='375.00'/>
        <line x1='321.52' x2='321.52' y1='0.00' y2='375.00'/>
        <line x1='327.20' x2='327.20' y1='0.00' y2='375.00'/>
        <line x1='332.88' x2='332.88' y1='0.00' y2='375.00'/>
        <line x1='338.57' x2='338.57' y1='0.00' y2='375.00'/>
        <line x1='344.25' x2='344.25' y1='0.00' y2='375.00'/>
        <line x1='349.93' x2='349.93' y1='0.00' y2='375.00'/>
        <line x1='355.62' x2='355.62' y1='0.00' y2='375.00'/>
        <line x1='361.30' x2='361.30' y1='0.00' y2='375.00'/>
        <line x1='366.98' x2='366.98' y1='0.00' y2='375.00'/>
        <line x1='372.67' x2='372.67' y1='0.00' y2='375.00'/>
        <line x1='378.35' x2='378.35' y1='0.00' y2='375.00'/>
        <line x1='384.03' x2='384.03' y1='0.00' y2='375.00'/>
        <line x1='389.72' x2='389.72' y1='0.00' y2='375.00'/>
        <line x1='395.40' x2='395.40' y1='0.00' y2='375.00'/>
        <line x1='401.08' x2='401.08' y1='0.00' y2='375.00'/>
        <line x1='406.77' x2='406.77' y1='0.00' y2='375.00'/>
        <line x1='412.45' x2='412.45' y1='0.00' y2='375.00'/>
        <line x1='418.13' x2='418.13' y1='0.00' y2='375.00'/>
        <line x1='423.82' x2='423.82' y1='0.00' y2='375.00'/>
        <line x1='429.50' x2='429.50' y1='0.00' y2='375.00'/>
        <line x1='435.18' x2='435.18' y1='0.00' y2='375.00'/>
        <line x1='440.87' x2='440.87' y1='0.00' y2='375.00'/>
        <line x1='446.55' x2='446.55' y1='0.00' y2='375.00'/>
        <line x1='452.23' x2='452.23' y1='0.00' y2='375.00'/>
        <line x1='457.92' x2='457.92' y1='0.00' y2='375.00'/>
        <line x1='463.60' x2='463.60' y1='0.00' y2='375.00'/>
        <line x1='469.28' x2='469.28' y1='0.00' y2='375.00'/>
        <line x1='474.97' x2='474.97' y1='0.00' y2='375.00'/>
        <line x1='480.65' x2='480.65' y1='0.00' y2='375.00'/>
        <line x1='486.33' x2='486.33' y1='0.00' y2='375.00'/>
        <line x1='492.02' x2='492.02' y1='0.00' y2='375.00'/>
        <line x1='497.70' x2='497.70' y1='0.00' y2='375.00'/>
        <line x1='503.38' x2='503.38' y1='0.00' y2='375.00'/>
        <line x1='509.07' x2='509.07' y1='0.00' y2='375.00'/>
        <line x1='514.75' x2='514.75' y1='0.00' y2='375.00'/>
        <line x1='520.43' x2='520.43' y1='0.00' y2='375.00'/>
        <line x1='526.12' x2='526.12' y1='0.00' y2='375.00'/>
        <line x1='531.80' x2='531.80' y1='0.00' y2='375.00'/>
        <line x1='537.48' x2='537.48' y1='0.00' y2='375.00'/>
        <line x1='543.17' x2='543.17' y1='0.00' y2='375.00'/>
        <line x1='548.85' x2='548.85' y1='0.00' y2='375.00'/>
        <line x1='554.53' x2='554.53' y1='0.00' y2='375.00'/>
        <line x1='560.22' x2='560.22' y1='0.00' y2='375.00'/>
        <line x1='565.90' x2='565.90' y1='0.00' y2='375.00'/>
        <line x1='571.58' x2='571.58' y1='0.00' y2='375.00'/>
        <line x1='577.27' x2='577.27' y1='0.00' y2='375.00'/>
        <line x1='582.95' x2='582.95' y1='0.00' y2='375.00'/>
        <line x1='588.63' x2='588.63' y1='0.00' y2='375.00'/>
        <line x1='594.32' x2='594.32' y1='0.00' y2='375.00'/>
        <line x1='600.00' x2='600.00' y1='0.00' y2='375.00'/>
      </g>
      <g fill='none' id='default' stroke='black'>
        <text class='titletext' style='fill: gray;stroke: none;font-family: Arial, Helvetica, sans-serif;;font-size: 24px;font-weight: bold;' x='42' y='20'>Аль-Ф. Рыск. после Рег</text>
      </g>
      <g fill='none' id='default' stroke='black'>
        <polyline id='lineitem0' points='40.0,127.5 41.9,127.0 43.8,126.6 45.7,126.1 47.6,125.6 49.5,125.2 51.4,124.7 53.3,124.2 55.2,123.7 57.1,123.9 58.9,124.1 60.8,124.2 62.7,124.4 64.6,124.5 66.5,124.7 68.4,124.8 70.3,125.0 72.2,125.1 74.1,125.3 76.0,125.4 77.9,125.6 79.8,125.7 81.7,125.9 83.6,126.1 85.5,126.2 87.4,126.4 89.3,126.5 91.2,126.7 93.0,126.8 94.9,127.0 96.8,127.1 98.7,127.3 100.6,127.4 102.5,127.5 104.4,127.5 106.3,127.5 108.2,127.5 110.1,127.5 112.0,127.5 113.9,127.5 115.8,127.5 117.7,127.5 119.6,127.5 121.5,127.5 123.4,127.5 125.3,129.1 127.1,131.2 129.0,133.3 130.9,135.3 132.8,137.4 134.7,139.4 136.6,141.5 138.5,143.5 140.4,145.6 142.3,147.7 144.2,149.7 146.1,151.8 148.0,153.8 149.9,155.9 151.8,157.9 153.7,160.0 155.6,162.1 157.5,164.1 159.4,166.2 161.2,168.2 163.1,170.3 165.0,172.3 166.9,174.4 168.8,176.5 170.7,178.5 172.6,180.6 174.5,182.6 176.4,184.7 178.3,186.7 180.2,188.8 182.1,190.9 184.0,192.9 185.9,195.0 187.8,197.0 189.7,199.1 191.6,201.1 193.5,203.2 195.3,205.3 197.2,207.3 199.1,209.4 201.0,211.4 202.9,213.5 204.8,215.5 206.7,217.6 208.6,219.7 210.5,221.7 212.4,223.8 214.3,222.0 216.2,214.7 218.1,207.3 220.0,199.9 221.9,192.5 223.8,185.1 225.7,177.7 227.6,170.3 229.4,163.0 231.3,155.6 233.2,148.2 235.1,140.8 237.0,133.4 238.9,127.8 240.8,129.0 242.7,130.3 244.6,131.6 246.5,132.8 248.4,134.1 250.3,135.4 252.2,136.7 254.1,137.9 256.0,139.2 257.9,140.5 259.8,141.7 261.7,145.5 263.5,153.0 265.4,160.5 267.3,168.0 269.2,175.5 271.1,183.0 273.0,190.5 274.9,198.0 276.8,205.5 278.7,213.0 280.6,220.5 282.5,225.0 284.4,225.0 286.3,225.0 288.2,225.0 290.1,225.0 292.0,225.0 293.9,225.0 295.8,225.0 297.6,225.0 299.5,225.0 301.4,225.0 303.3,225.0 305.2,225.0 307.1,225.0 309.0,225.0 310.9,225.0 312.8,225.0 314.7,225.0 316.6,225.0 318.5,225.0 320.4,225.0 322.3,225.0 324.2,225.0 326.1,225.0 328.0,191.2 329.9,125.6 331.7,135.0 333.6,144.4 335.5,153.7 337.4,163.1 339.3,172.5 341.2,181.9 343.1,191.2 345.0,200.6 346.9,210.0 348.8,219.4 350.7,191.2 352.6,123.8 354.5,123.9 356.4,124.1 358.3,124.2 360.2,124.4 362.1,124.6 364.0,124.7 365.8,124.9 367.7,125.0 369.6,125.2 371.5,125.3 373.4,125.5 375.3,125.7 377.2,125.8 379.1,126.0 381.0,126.1 382.9,126.3 384.8,126.4 386.7,126.6 388.6,126.8 390.5,126.9 392.4,127.1 394.3,127.2 396.2,127.4 398.1,129.3 399.9,138.3 401.8,147.4 403.7,156.4 405.6,165.4 407.5,174.4 409.4,183.5 411.3,192.5 413.2,201.5 415.1,210.6 417.0,219.6 418.9,214.0 420.8,186.4 422.7,158.8 424.6,131.2 426.5,142.2 428.4,153.1 430.3,164.0 432.2,174.9 434.0,185.8 435.9,196.7 437.8,207.6 439.7,218.5 441.6,200.4 443.5,138.8 445.4,138.8 447.3,138.8 449.2,138.8 451.1,138.8 453.0,138.8 454.9,138.8 456.8,138.8 458.7,138.8 460.6,138.8 462.5,138.8 464.4,138.8 466.3,138.8 468.1,138.8 470.0,138.8 471.9,138.4 473.8,138.1 475.7,137.8 477.6,137.5 479.5,137.2 481.4,136.9 483.3,136.6 485.2,136.2 487.1,135.9 489.0,135.6 490.9,135.3 492.8,135.0 494.7,134.7 496.6,134.5 498.5,134.2 500.4,133.9 502.2,133.7 504.1,133.4 506.0,133.1 507.9,132.9 509.8,132.6 511.7,132.3 513.6,132.1 515.5,131.8 517.4,131.5 519.3,131.2 521.2,131.2 523.1,131.2 525.0,131.2 526.9,131.2 528.8,131.2 530.7,131.2 532.6,131.2 534.5,131.2 536.3,131.2 561.4,131.2 ' style='stroke: blue; stroke-width: 2;'/>
      </g>
      <g fill='none' id='default' stroke='black'>
        <g fill='none' id='legendpanel_mini' stroke='black'>
          <rect class='legendpanel' height='15' style='fill: white;fill-opacity: 0.5;' width='150' x='446' y='10'/>
          <a xlink:href='javascript:void(0);' target='_top'>
            <rect fill='white' gerbiltooltip1='Click to show a detailed legend' height='5' onclick='showDetailedLegend();' stroke='none' width='5' x='441' y='10'/>
          </a>
          <a xlink:href='javascript:void(0);' target='_top'>
            <text font-size='9' gerbiltooltip1='Click to show a detailed legend' onclick='showDetailedLegend();' stroke='#DDDDDD' x='439' y='15'>+</text>
          </a>
          <a xlink:href='javascript:void(0);' target='_top'>
            <rect fill='white' gerbiltooltip1='Click to move legend to left side' height='5' onclick='shiftLegend(-396);' stroke='none' width='5' x='441' y='25'/>
          </a>
          <a xlink:href='javascript:void(0);' target='_top'>
            <text font-size='9' gerbiltooltip1='Click to move legend to left side' onclick='shiftLegend(-396);' stroke='#DDDDDD' x='439' y='25'>&lt;</text>
          </a>
          <a xlink:href='javascript:void(0);' target='_top'>
            <rect fill='white' gerbiltooltip1='Click to move legend to right side' height='5' onclick='shiftLegend(0);' stroke='none' width='5' x='441' y='35'/>
          </a>
          <a xlink:href='javascript:void(0);' target='_top'>
            <text font-size='9' gerbiltooltip1='Click to move legend to right side' onclick='shiftLegend(0);' stroke='#DDDDDD' x='439' y='35'>&gt;</text>
          </a>
          <circle cx='455' cy='17' fill='gray' id='lbx0' onclick='ToggleVisibility(0)' r='4' stroke='none'/>
          <rect height='10' id='item0' style='stroke:blue;fill: blue;' width='10' x='466' y='12'/>
          <text class='legendtext' gerbiltooltip1='{:title=&gt;&quot;\u0410\u043B\u044C-\u0424. \u0420\u044B\u0441\u043A. \u043F\u043E\u0441\u043B\u0435 \u0420\u0435\u0433&quot;}' gerbiltooltip2='Latest Value = 1.5' onmouseout='OpacityUp(evt)' onmouseover='OpacityDown(evt)' style='font-family: Verdana, Geneva, Arial, Helvetica, sans-serif;font-size: 10px;fill: black;stroke: none;' title='Аль-Ф. Рыск. после Рег' x='481' y='20'/>
        </g>
      </g>
      <g fill='none' id='default' stroke='black'>
        <g fill='none' id='legendpanel_detail' stroke='black' visibility='hidden'>
          <rect class='legendpanel' height='31' style='fill: white;fill-opacity: 0.5;' width='450' x='146' y='10'/>
          <a xlink:href='javascript:void(0);' target='_top'>
            <rect fill='white' gerbiltooltip1='Click to show compact legend' height='5' onclick='showMiniLegend();' stroke='none' width='5' x='141' y='10'/>
          </a>
          <a xlink:href='javascript:void(0);' target='_top'>
            <text font-size='9' gerbiltooltip1='Click to show compact legend' onclick='showMiniLegend();' stroke='#DDDDDD' x='142' y='15'>&gt;</text>
          </a>
          <text class='legendstats' xml:space='preserve' x='278' y='20'>      Max      Min      Avg   Latest</text>
          <rect height='10' id='item0' style='stroke:blue;fill: blue;' width='10' x='148' y='28'/>
          <text class='legendtext' gerbiltooltip1='{:title=&gt;&quot;\u0410\u043B\u044C-\u0424. \u0420\u044B\u0441\u043A. \u043F\u043E\u0441\u043B\u0435 \u0420\u0435\u0433&quot;}' gerbiltooltip2='Latest Value = 1.5' onmouseout='OpacityUp(evt)' onmouseover='OpacityDown(evt)' style='font-family: Verdana, Geneva, Arial, Helvetica, sans-serif;font-size: 10px;fill: black;stroke: none;' title='Аль-Ф. Рыск. после Рег' x='163' y='36'/>
          <text class='legendstats' xml:space='preserve' x='278' y='36'>      1.7       -1   782.5m      1.5</text>
        </g>
      </g>
      <g fill='none' id='default' stroke='black'>
        <rect class='axispanel' height='375' style='fill: lightgray;' width='40' x='0' y='0'/>
        <text class='axislabel' style='font-family: sans;font-size: 10px;fill: black;stroke: none;' text-anchor='end' x='36' y='379.0'>-5</text>
        <line class='axistickmajor' style='stroke-width: 2;stroke: black;' x1='39.00' x2='41.00' y1='375.00' y2='375.00'/>
        <text class='axislabel' style='font-family: sans;font-size: 10px;fill: black;stroke: none;' text-anchor='end' x='36' y='341.5'>-4</text>
        <line class='axistickmajor' style='stroke-width: 2;stroke: black;' x1='39.00' x2='41.00' y1='337.50' y2='337.50'/>
        <text class='axislabel' style='font-family: sans;font-size: 10px;fill: black;stroke: none;' text-anchor='end' x='36' y='304.0'>-3</text>
        <line class='axistickmajor' style='stroke-width: 2;stroke: black;' x1='39.00' x2='41.00' y1='300.00' y2='300.00'/>
        <text class='axislabel' style='font-family: sans;font-size: 10px;fill: black;stroke: none;' text-anchor='end' x='36' y='266.5'>-2</text>
        <line class='axistickmajor' style='stroke-width: 2;stroke: black;' x1='39.00' x2='41.00' y1='262.50' y2='262.50'/>
        <text class='axislabel' style='font-family: sans;font-size: 10px;fill: black;stroke: none;' text-anchor='end' x='36' y='229.0'>-1</text>
        <line class='axistickmajor' style='stroke-width: 2;stroke: black;' x1='39.00' x2='41.00' y1='225.00' y2='225.00'/>
        <text class='axislabel' style='font-family: sans;font-size: 10px;fill: black;stroke: none;' text-anchor='end' x='36' y='191.5'>0</text>
        <line class='axistickmajor' style='stroke-width: 2;stroke: black;' x1='39.00' x2='41.00' y1='187.50' y2='187.50'/>
        <text class='axislabel' style='font-family: sans;font-size: 10px;fill: black;stroke: none;' text-anchor='end' x='36' y='154.0'>1</text>
        <line class='axistickmajor' style='stroke-width: 2;stroke: black;' x1='39.00' x2='41.00' y1='150.00' y2='150.00'/>
        <text class='axislabel' style='font-family: sans;font-size: 10px;fill: black;stroke: none;' text-anchor='end' x='36' y='116.5'>2</text>
        <line class='axistickmajor' style='stroke-width: 2;stroke: black;' x1='39.00' x2='41.00' y1='112.50' y2='112.50'/>
        <text class='axislabel' style='font-family: sans;font-size: 10px;fill: black;stroke: none;' text-anchor='end' x='36' y='79.0'>3</text>
        <line class='axistickmajor' style='stroke-width: 2;stroke: black;' x1='39.00' x2='41.00' y1='75.00' y2='75.00'/>
        <text class='axislabel' style='font-family: sans;font-size: 10px;fill: black;stroke: none;' text-anchor='end' x='36' y='41.5'>4</text>
        <line class='axistickmajor' style='stroke-width: 2;stroke: black;' x1='39.00' x2='41.00' y1='37.50' y2='37.50'/>
        <text class='axislabel' style='font-family: sans;font-size: 10px;fill: black;stroke: none;' text-anchor='end' x='36' y='10'>5</text>
        <line class='axistickmajor' style='stroke-width: 2;stroke: black;' x1='39.00' x2='41.00' y1='0.00' y2='0.00'/>
      </g>
      <g fill='none' id='default' stroke='black'>
        <rect class='axispanel' height='25' style='fill: lightgray;' width='560' x='40' y='375'/>
        <text class='axislabel' style='font-family: sans;font-size: 10px;fill: black;stroke: none;' text-anchor='middle' x='54.3978349120433' y='386'>10:00</text>
        <line class='axistickmajor' style='stroke-width: 2;stroke: black;' x1='54.40' x2='54.40' y1='373.00' y2='376.00'/>
        <text class='axislabel' style='font-family: sans;font-size: 10px;fill: black;stroke: none;' text-anchor='middle' x='99.86468200270636' y='386'>12:00</text>
        <line class='axistickmajor' style='stroke-width: 2;stroke: black;' x1='99.86' x2='99.86' y1='373.00' y2='376.00'/>
        <text class='axislabel' style='font-family: sans;font-size: 10px;fill: black;stroke: none;' text-anchor='middle' x='145.33152909336943' y='386'>14:00</text>
        <line class='axistickmajor' style='stroke-width: 2;stroke: black;' x1='145.33' x2='145.33' y1='373.00' y2='376.00'/>
        <text class='axislabel' style='font-family: sans;font-size: 10px;fill: black;stroke: none;' text-anchor='middle' x='190.7983761840325' y='386'>16:00</text>
        <line class='axistickmajor' style='stroke-width: 2;stroke: black;' x1='190.80' x2='190.80' y1='373.00' y2='376.00'/>
        <text class='axislabel' style='font-family: sans;font-size: 10px;fill: black;stroke: none;' text-anchor='middle' x='236.26522327469556' y='386'>18:00</text>
        <line class='axistickmajor' style='stroke-width: 2;stroke: black;' x1='236.27' x2='236.27' y1='373.00' y2='376.00'/>
        <text class='axislabel' style='font-family: sans;font-size: 10px;fill: black;stroke: none;' text-anchor='middle' x='281.7320703653586' y='386'>20:00</text>
        <line class='axistickmajor' style='stroke-width: 2;stroke: black;' x1='281.73' x2='281.73' y1='373.00' y2='376.00'/>
        <text class='axislabel' style='font-family: sans;font-size: 10px;fill: black;stroke: none;' text-anchor='middle' x='327.19891745602166' y='386'>22:00</text>
        <line class='axistickmajor' style='stroke-width: 2;stroke: black;' x1='327.20' x2='327.20' y1='373.00' y2='376.00'/>
        <text class='axislabel' style='font-family: sans;font-size: 10px;fill: black;stroke: none;' text-anchor='middle' x='372.66576454668467' y='386'>Sep-20</text>
        <line class='axistickmajor' style='stroke-width: 2;stroke: black;' x1='372.67' x2='372.67' y1='373.00' y2='376.00'/>
        <text class='axislabel' style='font-family: sans;font-size: 10px;fill: black;stroke: none;' text-anchor='middle' x='418.13261163734774' y='386'>02:00</text>
        <line class='axistickmajor' style='stroke-width: 2;stroke: black;' x1='418.13' x2='418.13' y1='373.00' y2='376.00'/>
        <text class='axislabel' style='font-family: sans;font-size: 10px;fill: black;stroke: none;' text-anchor='middle' x='463.5994587280108' y='386'>04:00</text>
        <line class='axistickmajor' style='stroke-width: 2;stroke: black;' x1='463.60' x2='463.60' y1='373.00' y2='376.00'/>
        <text class='axislabel' style='font-family: sans;font-size: 10px;fill: black;stroke: none;' text-anchor='middle' x='509.06630581867387' y='386'>06:00</text>
        <line class='axistickmajor' style='stroke-width: 2;stroke: black;' x1='509.07' x2='509.07' y1='373.00' y2='376.00'/>
        <text class='axislabel' style='font-family: sans;font-size: 10px;fill: black;stroke: none;' text-anchor='middle' x='554.533152909337' y='386'>08:00</text>
        <line class='axistickmajor' style='stroke-width: 2;stroke: black;' x1='554.53' x2='554.53' y1='373.00' y2='376.00'/>
        <text class='axislabel' style='font-family: sans;font-size: 10px;fill: black;stroke: none;' text-anchor='middle' x='590' y='386'>10:00</text>
        <line class='axistickmajor' style='stroke-width: 2;stroke: black;' x1='590.00' x2='590.00' y1='373.00' y2='376.00'/>
        <text class='axislabelt0' style='font-family: sans;font-size: 8px;fill: black;stroke: none;' x='20' y='397'>2013-09-19 09:22:00 +0600</text>
        <line class='axistickmajor' style='stroke-width: 2;stroke: black;' x1='40.00' x2='40.00' y1='375.00' y2='377.00'/>
      </g>
    </g>
  </g>
</svg>
