<?xml version='1.0' encoding='UTF-8'?>
<!DOCTYPE svg PUBLIC "-//W3C//DTD SVG 1.1//EN" "http://www.w3.org/Graphics/SVG/1.1/DTD/svg11.dtd"><svg height='400' version='1.1' width='1024' xmlns:xlink='http://www.w3.org/1999/xlink' xmlns='http://www.w3.org/2000/svg'>
  <defs>
    <linearGradient id='vertgrad' x1='0%' x2='0%' y1='0%' y2='100%'>
      <stop offset='0%' style='stop-color:rgb(255,255,255)'/>
      <stop offset='100%' style='stop-color:rgb(192,192,192)'/>
    </linearGradient>
  </defs>
  <g id='GerbilSVGGraph'>
    <g fill='none' id='Gerbil_Root_Window' stroke='black'>
      <g fill='none' id='default' stroke='black'>
        <rect class='surfaceback' height='375' style='fill: url(#vertgrad);' width='984' x='40' y='0'/>
      </g>
      <g fill='none' id='default' stroke='black'>
        <g class='gridlineh' fill='none' id='hgrid' stroke='black' style='stroke-width: 1;stroke: lightgray;'>
          <line x1='40.00' x2='1024.00' y1='375.00' y2='375.00'/>
          <line x1='40.00' x2='1024.00' y1='300.00' y2='300.00'/>
          <line x1='40.00' x2='1024.00' y1='225.00' y2='225.00'/>
          <line x1='40.00' x2='1024.00' y1='150.00' y2='150.00'/>
          <line x1='40.00' x2='1024.00' y1='75.00' y2='75.00'/>
          <line x1='40.00' x2='1024.00' y1='0.00' y2='0.00'/>
        </g>
      </g>
      <g class='gridlinesub' fill='none' id='hgridsub' stroke='black'>
      </g>
      <g class='gridlinev' fill='none' id='vgrid' stroke='black' style='stroke-width: 1;stroke: lightgray;'>
        <line x1='31.73' x2='31.73' y1='0.00' y2='375.00'/>
        <line x1='108.06' x2='108.06' y1='0.00' y2='375.00'/>
        <line x1='184.39' x2='184.39' y1='0.00' y2='375.00'/>
        <line x1='260.72' x2='260.72' y1='0.00' y2='375.00'/>
        <line x1='337.04' x2='337.04' y1='0.00' y2='375.00'/>
        <line x1='413.37' x2='413.37' y1='0.00' y2='375.00'/>
        <line x1='489.70' x2='489.70' y1='0.00' y2='375.00'/>
        <line x1='566.03' x2='566.03' y1='0.00' y2='375.00'/>
        <line x1='642.36' x2='642.36' y1='0.00' y2='375.00'/>
        <line x1='718.69' x2='718.69' y1='0.00' y2='375.00'/>
        <line x1='795.01' x2='795.01' y1='0.00' y2='375.00'/>
        <line x1='871.34' x2='871.34' y1='0.00' y2='375.00'/>
        <line x1='947.67' x2='947.67' y1='0.00' y2='375.00'/>
        <line x1='1024.00' x2='1024.00' y1='0.00' y2='375.00'/>
      </g>
      <g class='gridlinesub' fill='none' id='vgridsub' stroke='black'>
        <line x1='31.73' x2='31.73' y1='0.00' y2='375.00'/>
        <line x1='41.27' x2='41.27' y1='0.00' y2='375.00'/>
        <line x1='50.81' x2='50.81' y1='0.00' y2='375.00'/>
        <line x1='60.35' x2='60.35' y1='0.00' y2='375.00'/>
        <line x1='69.90' x2='69.90' y1='0.00' y2='375.00'/>
        <line x1='79.44' x2='79.44' y1='0.00' y2='375.00'/>
        <line x1='88.98' x2='88.98' y1='0.00' y2='375.00'/>
        <line x1='98.52' x2='98.52' y1='0.00' y2='375.00'/>
        <line x1='108.06' x2='108.06' y1='0.00' y2='375.00'/>
        <line x1='117.60' x2='117.60' y1='0.00' y2='375.00'/>
        <line x1='127.14' x2='127.14' y1='0.00' y2='375.00'/>
        <line x1='136.68' x2='136.68' y1='0.00' y2='375.00'/>
        <line x1='146.22' x2='146.22' y1='0.00' y2='375.00'/>
        <line x1='155.76' x2='155.76' y1='0.00' y2='375.00'/>
        <line x1='165.31' x2='165.31' y1='0.00' y2='375.00'/>
        <line x1='174.85' x2='174.85' y1='0.00' y2='375.00'/>
        <line x1='184.39' x2='184.39' y1='0.00' y2='375.00'/>
        <line x1='193.93' x2='193.93' y1='0.00' y2='375.00'/>
        <line x1='203.47' x2='203.47' y1='0.00' y2='375.00'/>
        <line x1='213.01' x2='213.01' y1='0.00' y2='375.00'/>
        <line x1='222.55' x2='222.55' y1='0.00' y2='375.00'/>
        <line x1='232.09' x2='232.09' y1='0.00' y2='375.00'/>
        <line x1='241.63' x2='241.63' y1='0.00' y2='375.00'/>
        <line x1='251.18' x2='251.18' y1='0.00' y2='375.00'/>
        <line x1='260.72' x2='260.72' y1='0.00' y2='375.00'/>
        <line x1='270.26' x2='270.26' y1='0.00' y2='375.00'/>
        <line x1='279.80' x2='279.80' y1='0.00' y2='375.00'/>
        <line x1='289.34' x2='289.34' y1='0.00' y2='375.00'/>
        <line x1='298.88' x2='298.88' y1='0.00' y2='375.00'/>
        <line x1='308.42' x2='308.42' y1='0.00' y2='375.00'/>
        <line x1='317.96' x2='317.96' y1='0.00' y2='375.00'/>
        <line x1='327.50' x2='327.50' y1='0.00' y2='375.00'/>
        <line x1='337.04' x2='337.04' y1='0.00' y2='375.00'/>
        <line x1='346.59' x2='346.59' y1='0.00' y2='375.00'/>
        <line x1='356.13' x2='356.13' y1='0.00' y2='375.00'/>
        <line x1='365.67' x2='365.67' y1='0.00' y2='375.00'/>
        <line x1='375.21' x2='375.21' y1='0.00' y2='375.00'/>
        <line x1='384.75' x2='384.75' y1='0.00' y2='375.00'/>
        <line x1='394.29' x2='394.29' y1='0.00' y2='375.00'/>
        <line x1='403.83' x2='403.83' y1='0.00' y2='375.00'/>
        <line x1='413.37' x2='413.37' y1='0.00' y2='375.00'/>
        <line x1='422.91' x2='422.91' y1='0.00' y2='375.00'/>
        <line x1='432.46' x2='432.46' y1='0.00' y2='375.00'/>
        <line x1='442.00' x2='442.00' y1='0.00' y2='375.00'/>
        <line x1='451.54' x2='451.54' y1='0.00' y2='375.00'/>
        <line x1='461.08' x2='461.08' y1='0.00' y2='375.00'/>
        <line x1='470.62' x2='470.62' y1='0.00' y2='375.00'/>
        <line x1='480.16' x2='480.16' y1='0.00' y2='375.00'/>
        <line x1='489.70' x2='489.70' y1='0.00' y2='375.00'/>
        <line x1='499.24' x2='499.24' y1='0.00' y2='375.00'/>
        <line x1='508.78' x2='508.78' y1='0.00' y2='375.00'/>
        <line x1='518.32' x2='518.32' y1='0.00' y2='375.00'/>
        <line x1='527.87' x2='527.87' y1='0.00' y2='375.00'/>
        <line x1='537.41' x2='537.41' y1='0.00' y2='375.00'/>
        <line x1='546.95' x2='546.95' y1='0.00' y2='375.00'/>
        <line x1='556.49' x2='556.49' y1='0.00' y2='375.00'/>
        <line x1='566.03' x2='566.03' y1='0.00' y2='375.00'/>
        <line x1='575.57' x2='575.57' y1='0.00' y2='375.00'/>
        <line x1='585.11' x2='585.11' y1='0.00' y2='375.00'/>
        <line x1='594.65' x2='594.65' y1='0.00' y2='375.00'/>
        <line x1='604.19' x2='604.19' y1='0.00' y2='375.00'/>
        <line x1='613.73' x2='613.73' y1='0.00' y2='375.00'/>
        <line x1='623.28' x2='623.28' y1='0.00' y2='375.00'/>
        <line x1='632.82' x2='632.82' y1='0.00' y2='375.00'/>
        <line x1='642.36' x2='642.36' y1='0.00' y2='375.00'/>
        <line x1='651.90' x2='651.90' y1='0.00' y2='375.00'/>
        <line x1='661.44' x2='661.44' y1='0.00' y2='375.00'/>
        <line x1='670.98' x2='670.98' y1='0.00' y2='375.00'/>
        <line x1='680.52' x2='680.52' y1='0.00' y2='375.00'/>
        <line x1='690.06' x2='690.06' y1='0.00' y2='375.00'/>
        <line x1='699.60' x2='699.60' y1='0.00' y2='375.00'/>
        <line x1='709.15' x2='709.15' y1='0.00' y2='375.00'/>
        <line x1='718.69' x2='718.69' y1='0.00' y2='375.00'/>
        <line x1='728.23' x2='728.23' y1='0.00' y2='375.00'/>
        <line x1='737.77' x2='737.77' y1='0.00' y2='375.00'/>
        <line x1='747.31' x2='747.31' y1='0.00' y2='375.00'/>
        <line x1='756.85' x2='756.85' y1='0.00' y2='375.00'/>
        <line x1='766.39' x2='766.39' y1='0.00' y2='375.00'/>
        <line x1='775.93' x2='775.93' y1='0.00' y2='375.00'/>
        <line x1='785.47' x2='785.47' y1='0.00' y2='375.00'/>
        <line x1='795.01' x2='795.01' y1='0.00' y2='375.00'/>
        <line x1='804.56' x2='804.56' y1='0.00' y2='375.00'/>
        <line x1='814.10' x2='814.10' y1='0.00' y2='375.00'/>
        <line x1='823.64' x2='823.64' y1='0.00' y2='375.00'/>
        <line x1='833.18' x2='833.18' y1='0.00' y2='375.00'/>
        <line x1='842.72' x2='842.72' y1='0.00' y2='375.00'/>
        <line x1='852.26' x2='852.26' y1='0.00' y2='375.00'/>
        <line x1='861.80' x2='861.80' y1='0.00' y2='375.00'/>
        <line x1='871.34' x2='871.34' y1='0.00' y2='375.00'/>
        <line x1='880.88' x2='880.88' y1='0.00' y2='375.00'/>
        <line x1='890.43' x2='890.43' y1='0.00' y2='375.00'/>
        <line x1='899.97' x2='899.97' y1='0.00' y2='375.00'/>
        <line x1='909.51' x2='909.51' y1='0.00' y2='375.00'/>
        <line x1='919.05' x2='919.05' y1='0.00' y2='375.00'/>
        <line x1='928.59' x2='928.59' y1='0.00' y2='375.00'/>
        <line x1='938.13' x2='938.13' y1='0.00' y2='375.00'/>
        <line x1='947.67' x2='947.67' y1='0.00' y2='375.00'/>
        <line x1='957.21' x2='957.21' y1='0.00' y2='375.00'/>
        <line x1='966.75' x2='966.75' y1='0.00' y2='375.00'/>
        <line x1='976.29' x2='976.29' y1='0.00' y2='375.00'/>
        <line x1='985.84' x2='985.84' y1='0.00' y2='375.00'/>
        <line x1='995.38' x2='995.38' y1='0.00' y2='375.00'/>
        <line x1='1004.92' x2='1004.92' y1='0.00' y2='375.00'/>
        <line x1='1014.46' x2='1014.46' y1='0.00' y2='375.00'/>
        <line x1='1024.00' x2='1024.00' y1='0.00' y2='375.00'/>
      </g>
      <g fill='none' id='default' stroke='black'>
        <text class='titletext' style='fill: gray;stroke: none;font-family: Arial, Helvetica, sans-serif;;font-size: 24px;font-weight: bold;' x='42' y='20'>Нурсат</text>
      </g>
      <g fill='none' id='default' stroke='black'>
        <polyline id='lineitem0' points='40.0,103.1 46.4,103.1 53.4,103.1 307.8,84.4 307.8,93.8 307.8,103.1 307.8,93.8 308.4,75.0 309.1,65.6 309.1,75.0 309.1,65.6 309.1,75.0 309.7,65.6 309.7,75.0 309.7,65.6 309.7,75.0 310.3,75.0 310.3,65.6 310.3,75.0 311.0,65.6 312.2,65.6 312.9,65.6 314.1,84.4 314.1,65.6 315.4,84.4 316.1,93.8 317.3,103.1 319.2,112.5 320.5,131.2 323.7,121.9 326.9,140.6 330.0,140.6 333.2,150.0 372.0,140.6 372.7,140.6 373.9,140.6 374.6,150.0 375.8,140.6 377.8,121.9 379.7,121.9 381.6,131.2 382.8,131.2 383.5,131.2 384.7,131.2 387.3,140.6 390.5,159.4 393.7,140.6 396.8,140.6 400.0,150.0 403.2,150.0 406.4,140.6 409.6,140.6 412.7,140.6 415.9,140.6 419.1,150.0 422.3,131.2 425.5,140.6 428.6,121.9 431.8,131.2 435.0,121.9 438.2,121.9 442.0,121.9 444.5,121.9 447.7,121.9 450.9,131.2 454.1,121.9 457.3,140.6 460.4,121.9 463.6,121.9 470.0,112.5 473.2,131.2 476.3,121.9 482.7,168.7 485.9,168.7 489.1,168.7 492.2,178.1 495.4,187.5 498.6,178.1 501.8,168.7 508.1,187.5 511.3,178.1 517.7,178.1 524.0,168.7 530.4,168.7 533.6,178.1 536.8,159.4 540.6,168.7 543.1,159.4 549.5,159.4 553.3,168.7 556.5,168.7 559.0,168.7 562.2,168.7 565.4,168.7 568.6,178.1 571.8,168.7 574.9,168.7 578.1,159.4 581.3,159.4 584.5,178.1 587.7,168.7 590.8,168.7 744.1,178.1 744.8,159.4 744.8,168.7 744.8,178.1 745.4,178.1 745.4,168.7 745.4,178.1 745.4,159.4 745.4,168.7 746.0,168.7 746.0,159.4 746.7,168.7 746.7,159.4 746.7,168.7 747.3,168.7 750.5,159.4 753.7,159.4 756.9,159.4 760.0,140.6 763.2,140.6 766.4,140.6 769.6,140.6 772.8,140.6 775.9,131.2 779.1,140.6 782.3,121.9 785.5,140.6 788.7,140.6 791.8,140.6 795.0,150.0 798.2,131.2 804.6,159.4 807.7,168.7 814.1,168.7 897.4,140.6 897.4,131.2 897.4,140.6 898.1,150.0 898.1,131.2 898.1,140.6 898.1,150.0 903.1,131.2 906.3,140.6 909.5,140.6 912.7,131.2 928.6,140.6 931.8,140.6 935.0,140.6 938.8,140.6 941.3,121.9 944.5,112.5 947.7,112.5 ' style='stroke: blue; stroke-width: 2;'/>
      </g>
      <g fill='none' id='default' stroke='black'>
        <g fill='none' id='legendpanel_mini' stroke='black'>
          <rect class='legendpanel' height='15' style='fill: white;fill-opacity: 0.5;' width='256' x='764' y='10'/>
          <a xlink:href='javascript:void(0);' target='_top'>
            <rect fill='white' gerbiltooltip1='Click to show a detailed legend' height='5' onclick='showDetailedLegend();' stroke='none' width='5' x='759' y='10'/>
          </a>
          <a xlink:href='javascript:void(0);' target='_top'>
            <text font-size='9' gerbiltooltip1='Click to show a detailed legend' onclick='showDetailedLegend();' stroke='#DDDDDD' x='757' y='15'>+</text>
          </a>
          <a xlink:href='javascript:void(0);' target='_top'>
            <rect fill='white' gerbiltooltip1='Click to move legend to left side' height='5' onclick='shiftLegend(-714);' stroke='none' width='5' x='759' y='25'/>
          </a>
          <a xlink:href='javascript:void(0);' target='_top'>
            <text font-size='9' gerbiltooltip1='Click to move legend to left side' onclick='shiftLegend(-714);' stroke='#DDDDDD' x='757' y='25'>&lt;</text>
          </a>
          <a xlink:href='javascript:void(0);' target='_top'>
            <rect fill='white' gerbiltooltip1='Click to move legend to right side' height='5' onclick='shiftLegend(0);' stroke='none' width='5' x='759' y='35'/>
          </a>
          <a xlink:href='javascript:void(0);' target='_top'>
            <text font-size='9' gerbiltooltip1='Click to move legend to right side' onclick='shiftLegend(0);' stroke='#DDDDDD' x='757' y='35'>&gt;</text>
          </a>
          <circle cx='773' cy='17' fill='gray' id='lbx0' onclick='ToggleVisibility(0)' r='4' stroke='none'/>
          <rect height='10' id='item0' style='stroke:blue;fill: blue;' width='10' x='784' y='12'/>
          <text class='legendtext' gerbiltooltip1='{:title=&gt;&quot;\u041D\u0443\u0440\u0441\u0430\u0442&quot;}' gerbiltooltip2='Latest Value = 3.8' onmouseout='OpacityUp(evt)' onmouseover='OpacityDown(evt)' style='font-family: Verdana, Geneva, Arial, Helvetica, sans-serif;font-size: 10px;fill: black;stroke: none;' title='Нурсат' x='799' y='20'/>
        </g>
      </g>
      <g fill='none' id='default' stroke='black'>
        <g fill='none' id='legendpanel_detail' stroke='black' visibility='hidden'>
          <rect class='legendpanel' height='31' style='fill: white;fill-opacity: 0.5;' width='500' x='520' y='10'/>
          <a xlink:href='javascript:void(0);' target='_top'>
            <rect fill='white' gerbiltooltip1='Click to show compact legend' height='5' onclick='showMiniLegend();' stroke='none' width='5' x='515' y='10'/>
          </a>
          <a xlink:href='javascript:void(0);' target='_top'>
            <text font-size='9' gerbiltooltip1='Click to show compact legend' onclick='showMiniLegend();' stroke='#DDDDDD' x='516' y='15'>&gt;</text>
          </a>
          <text class='legendstats' xml:space='preserve' x='652' y='20'>      Max      Min      Avg   Latest</text>
          <rect height='10' id='item0' style='stroke:blue;fill: blue;' width='10' x='522' y='28'/>
          <text class='legendtext' gerbiltooltip1='{:title=&gt;&quot;\u041D\u0443\u0440\u0441\u0430\u0442&quot;}' gerbiltooltip2='Latest Value = 3.8' onmouseout='OpacityUp(evt)' onmouseover='OpacityDown(evt)' style='font-family: Verdana, Geneva, Arial, Helvetica, sans-serif;font-size: 10px;fill: black;stroke: none;' title='Нурсат' x='537' y='36'/>
          <text class='legendstats' xml:space='preserve' x='652' y='36'>      4.3        3      3.5      3.8</text>
        </g>
      </g>
      <g fill='none' id='default' stroke='black'>
        <rect class='axispanel' height='375' style='fill: lightgray;' width='40' x='0' y='0'/>
        <text class='axislabel' style='font-family: sans;font-size: 10px;fill: black;stroke: none;' text-anchor='end' x='36' y='379.0'>1</text>
        <line class='axistickmajor' style='stroke-width: 2;stroke: black;' x1='39.00' x2='41.00' y1='375.00' y2='375.00'/>
        <text class='axislabel' style='font-family: sans;font-size: 10px;fill: black;stroke: none;' text-anchor='end' x='36' y='285.25'>2</text>
        <line class='axistickmajor' style='stroke-width: 2;stroke: black;' x1='39.00' x2='41.00' y1='281.25' y2='281.25'/>
        <text class='axislabel' style='font-family: sans;font-size: 10px;fill: black;stroke: none;' text-anchor='end' x='36' y='191.5'>3</text>
        <line class='axistickmajor' style='stroke-width: 2;stroke: black;' x1='39.00' x2='41.00' y1='187.50' y2='187.50'/>
        <text class='axislabel' style='font-family: sans;font-size: 10px;fill: black;stroke: none;' text-anchor='end' x='36' y='97.75'>4</text>
        <line class='axistickmajor' style='stroke-width: 2;stroke: black;' x1='39.00' x2='41.00' y1='93.75' y2='93.75'/>
        <text class='axislabel' style='font-family: sans;font-size: 10px;fill: black;stroke: none;' text-anchor='end' x='36' y='10'>5</text>
        <line class='axistickmajor' style='stroke-width: 2;stroke: black;' x1='39.00' x2='41.00' y1='0.00' y2='0.00'/>
      </g>
      <g fill='none' id='default' stroke='black'>
        <rect class='axispanel' height='25' style='fill: lightgray;' width='984' x='40' y='375'/>
        <text class='axislabel' style='font-family: sans;font-size: 10px;fill: black;stroke: none;' text-anchor='middle' x='31.73109243697479' y='386'>Aug-06</text>
        <line class='axistickmajor' style='stroke-width: 2;stroke: black;' x1='31.73' x2='31.73' y1='373.00' y2='376.00'/>
        <text class='axislabel' style='font-family: sans;font-size: 10px;fill: black;stroke: none;' text-anchor='middle' x='108.05946994182288' y='386'>02:00</text>
        <line class='axistickmajor' style='stroke-width: 2;stroke: black;' x1='108.06' x2='108.06' y1='373.00' y2='376.00'/>
        <text class='axislabel' style='font-family: sans;font-size: 10px;fill: black;stroke: none;' text-anchor='middle' x='184.38784744667097' y='386'>04:00</text>
        <line class='axistickmajor' style='stroke-width: 2;stroke: black;' x1='184.39' x2='184.39' y1='373.00' y2='376.00'/>
        <text class='axislabel' style='font-family: sans;font-size: 10px;fill: black;stroke: none;' text-anchor='middle' x='260.71622495151905' y='386'>06:00</text>
        <line class='axistickmajor' style='stroke-width: 2;stroke: black;' x1='260.72' x2='260.72' y1='373.00' y2='376.00'/>
        <text class='axislabel' style='font-family: sans;font-size: 10px;fill: black;stroke: none;' text-anchor='middle' x='337.04460245636716' y='386'>08:00</text>
        <line class='axistickmajor' style='stroke-width: 2;stroke: black;' x1='337.04' x2='337.04' y1='373.00' y2='376.00'/>
        <text class='axislabel' style='font-family: sans;font-size: 10px;fill: black;stroke: none;' text-anchor='middle' x='413.37297996121526' y='386'>10:00</text>
        <line class='axistickmajor' style='stroke-width: 2;stroke: black;' x1='413.37' x2='413.37' y1='373.00' y2='376.00'/>
        <text class='axislabel' style='font-family: sans;font-size: 10px;fill: black;stroke: none;' text-anchor='middle' x='489.7013574660633' y='386'>12:00</text>
        <line class='axistickmajor' style='stroke-width: 2;stroke: black;' x1='489.70' x2='489.70' y1='373.00' y2='376.00'/>
        <text class='axislabel' style='font-family: sans;font-size: 10px;fill: black;stroke: none;' text-anchor='middle' x='566.0297349709115' y='386'>14:00</text>
        <line class='axistickmajor' style='stroke-width: 2;stroke: black;' x1='566.03' x2='566.03' y1='373.00' y2='376.00'/>
        <text class='axislabel' style='font-family: sans;font-size: 10px;fill: black;stroke: none;' text-anchor='middle' x='642.3581124757595' y='386'>16:00</text>
        <line class='axistickmajor' style='stroke-width: 2;stroke: black;' x1='642.36' x2='642.36' y1='373.00' y2='376.00'/>
        <text class='axislabel' style='font-family: sans;font-size: 10px;fill: black;stroke: none;' text-anchor='middle' x='718.6864899806076' y='386'>18:00</text>
        <line class='axistickmajor' style='stroke-width: 2;stroke: black;' x1='718.69' x2='718.69' y1='373.00' y2='376.00'/>
        <text class='axislabel' style='font-family: sans;font-size: 10px;fill: black;stroke: none;' text-anchor='middle' x='795.0148674854557' y='386'>20:00</text>
        <line class='axistickmajor' style='stroke-width: 2;stroke: black;' x1='795.01' x2='795.01' y1='373.00' y2='376.00'/>
        <text class='axislabel' style='font-family: sans;font-size: 10px;fill: black;stroke: none;' text-anchor='middle' x='871.3432449903038' y='386'>22:00</text>
        <line class='axistickmajor' style='stroke-width: 2;stroke: black;' x1='871.34' x2='871.34' y1='373.00' y2='376.00'/>
        <text class='axislabel' style='font-family: sans;font-size: 10px;fill: black;stroke: none;' text-anchor='middle' x='947.671622495152' y='386'>Aug-07</text>
        <line class='axistickmajor' style='stroke-width: 2;stroke: black;' x1='947.67' x2='947.67' y1='373.00' y2='376.00'/>
        <text class='axislabel' style='font-family: sans;font-size: 10px;fill: black;stroke: none;' text-anchor='middle' x='1014' y='386'>02:00</text>
        <line class='axistickmajor' style='stroke-width: 2;stroke: black;' x1='1014.00' x2='1014.00' y1='373.00' y2='376.00'/>
        <text class='axislabelt0' style='font-family: sans;font-size: 8px;fill: black;stroke: none;' x='20' y='397'>2013-08-06 00:13:00 +0600</text>
        <line class='axistickmajor' style='stroke-width: 2;stroke: black;' x1='40.00' x2='40.00' y1='375.00' y2='377.00'/>
      </g>
    </g>
  </g>
</svg>
