<?xml version='1.0' encoding='UTF-8'?>
<!DOCTYPE svg PUBLIC "-//W3C//DTD SVG 1.1//EN" "http://www.w3.org/Graphics/SVG/1.1/DTD/svg11.dtd"><svg height='400' version='1.1' width='600' xmlns:xlink='http://www.w3.org/1999/xlink' xmlns='http://www.w3.org/2000/svg'>
  <defs>
    <linearGradient id='vertgrad' x1='0%' x2='0%' y1='0%' y2='100%'>
      <stop offset='0%' style='stop-color:rgb(255,255,255)'/>
      <stop offset='100%' style='stop-color:rgb(192,192,192)'/>
    </linearGradient>
  </defs>
  <g id='GerbilSVGGraph'>
    <g fill='none' id='Gerbil_Root_Window' stroke='black'>
      <g fill='none' id='default' stroke='black'>
        <rect class='surfaceback' height='375' style='fill: url(#vertgrad);' width='560' x='40' y='0'/>
      </g>
      <g fill='none' id='default' stroke='black'>
        <g class='gridlineh' fill='none' id='hgrid' stroke='black' style='stroke-width: 1;stroke: lightgray;'>
          <line x1='40.00' x2='600.00' y1='375.00' y2='375.00'/>
          <line x1='40.00' x2='600.00' y1='337.50' y2='337.50'/>
          <line x1='40.00' x2='600.00' y1='300.00' y2='300.00'/>
          <line x1='40.00' x2='600.00' y1='262.50' y2='262.50'/>
          <line x1='40.00' x2='600.00' y1='225.00' y2='225.00'/>
          <line x1='40.00' x2='600.00' y1='187.50' y2='187.50'/>
          <line x1='40.00' x2='600.00' y1='150.00' y2='150.00'/>
          <line x1='40.00' x2='600.00' y1='112.50' y2='112.50'/>
          <line x1='40.00' x2='600.00' y1='75.00' y2='75.00'/>
          <line x1='40.00' x2='600.00' y1='37.50' y2='37.50'/>
          <line x1='40.00' x2='600.00' y1='0.00' y2='0.00'/>
        </g>
      </g>
      <g class='gridlinesub' fill='none' id='hgridsub' stroke='black'>
      </g>
      <g class='gridlinev' fill='none' id='vgrid' stroke='black' style='stroke-width: 1;stroke: lightgray;'>
        <line x1='3.55' x2='3.55' y1='0.00' y2='375.00'/>
        <line x1='69.82' x2='69.82' y1='0.00' y2='375.00'/>
        <line x1='136.09' x2='136.09' y1='0.00' y2='375.00'/>
        <line x1='202.37' x2='202.37' y1='0.00' y2='375.00'/>
        <line x1='268.64' x2='268.64' y1='0.00' y2='375.00'/>
        <line x1='334.91' x2='334.91' y1='0.00' y2='375.00'/>
        <line x1='401.18' x2='401.18' y1='0.00' y2='375.00'/>
        <line x1='467.46' x2='467.46' y1='0.00' y2='375.00'/>
        <line x1='533.73' x2='533.73' y1='0.00' y2='375.00'/>
        <line x1='600.00' x2='600.00' y1='0.00' y2='375.00'/>
      </g>
      <g class='gridlinesub' fill='none' id='vgridsub' stroke='black'>
        <line x1='3.55' x2='3.55' y1='0.00' y2='375.00'/>
        <line x1='11.83' x2='11.83' y1='0.00' y2='375.00'/>
        <line x1='20.12' x2='20.12' y1='0.00' y2='375.00'/>
        <line x1='28.40' x2='28.40' y1='0.00' y2='375.00'/>
        <line x1='36.69' x2='36.69' y1='0.00' y2='375.00'/>
        <line x1='44.97' x2='44.97' y1='0.00' y2='375.00'/>
        <line x1='53.25' x2='53.25' y1='0.00' y2='375.00'/>
        <line x1='61.54' x2='61.54' y1='0.00' y2='375.00'/>
        <line x1='69.82' x2='69.82' y1='0.00' y2='375.00'/>
        <line x1='78.11' x2='78.11' y1='0.00' y2='375.00'/>
        <line x1='86.39' x2='86.39' y1='0.00' y2='375.00'/>
        <line x1='94.67' x2='94.67' y1='0.00' y2='375.00'/>
        <line x1='102.96' x2='102.96' y1='0.00' y2='375.00'/>
        <line x1='111.24' x2='111.24' y1='0.00' y2='375.00'/>
        <line x1='119.53' x2='119.53' y1='0.00' y2='375.00'/>
        <line x1='127.81' x2='127.81' y1='0.00' y2='375.00'/>
        <line x1='136.09' x2='136.09' y1='0.00' y2='375.00'/>
        <line x1='144.38' x2='144.38' y1='0.00' y2='375.00'/>
        <line x1='152.66' x2='152.66' y1='0.00' y2='375.00'/>
        <line x1='160.95' x2='160.95' y1='0.00' y2='375.00'/>
        <line x1='169.23' x2='169.23' y1='0.00' y2='375.00'/>
        <line x1='177.51' x2='177.51' y1='0.00' y2='375.00'/>
        <line x1='185.80' x2='185.80' y1='0.00' y2='375.00'/>
        <line x1='194.08' x2='194.08' y1='0.00' y2='375.00'/>
        <line x1='202.37' x2='202.37' y1='0.00' y2='375.00'/>
        <line x1='210.65' x2='210.65' y1='0.00' y2='375.00'/>
        <line x1='218.93' x2='218.93' y1='0.00' y2='375.00'/>
        <line x1='227.22' x2='227.22' y1='0.00' y2='375.00'/>
        <line x1='235.50' x2='235.50' y1='0.00' y2='375.00'/>
        <line x1='243.79' x2='243.79' y1='0.00' y2='375.00'/>
        <line x1='252.07' x2='252.07' y1='0.00' y2='375.00'/>
        <line x1='260.36' x2='260.36' y1='0.00' y2='375.00'/>
        <line x1='268.64' x2='268.64' y1='0.00' y2='375.00'/>
        <line x1='276.92' x2='276.92' y1='0.00' y2='375.00'/>
        <line x1='285.21' x2='285.21' y1='0.00' y2='375.00'/>
        <line x1='293.49' x2='293.49' y1='0.00' y2='375.00'/>
        <line x1='301.78' x2='301.78' y1='0.00' y2='375.00'/>
        <line x1='310.06' x2='310.06' y1='0.00' y2='375.00'/>
        <line x1='318.34' x2='318.34' y1='0.00' y2='375.00'/>
        <line x1='326.63' x2='326.63' y1='0.00' y2='375.00'/>
        <line x1='334.91' x2='334.91' y1='0.00' y2='375.00'/>
        <line x1='343.20' x2='343.20' y1='0.00' y2='375.00'/>
        <line x1='351.48' x2='351.48' y1='0.00' y2='375.00'/>
        <line x1='359.76' x2='359.76' y1='0.00' y2='375.00'/>
        <line x1='368.05' x2='368.05' y1='0.00' y2='375.00'/>
        <line x1='376.33' x2='376.33' y1='0.00' y2='375.00'/>
        <line x1='384.62' x2='384.62' y1='0.00' y2='375.00'/>
        <line x1='392.90' x2='392.90' y1='0.00' y2='375.00'/>
        <line x1='401.18' x2='401.18' y1='0.00' y2='375.00'/>
        <line x1='409.47' x2='409.47' y1='0.00' y2='375.00'/>
        <line x1='417.75' x2='417.75' y1='0.00' y2='375.00'/>
        <line x1='426.04' x2='426.04' y1='0.00' y2='375.00'/>
        <line x1='434.32' x2='434.32' y1='0.00' y2='375.00'/>
        <line x1='442.60' x2='442.60' y1='0.00' y2='375.00'/>
        <line x1='450.89' x2='450.89' y1='0.00' y2='375.00'/>
        <line x1='459.17' x2='459.17' y1='0.00' y2='375.00'/>
        <line x1='467.46' x2='467.46' y1='0.00' y2='375.00'/>
        <line x1='475.74' x2='475.74' y1='0.00' y2='375.00'/>
        <line x1='484.02' x2='484.02' y1='0.00' y2='375.00'/>
        <line x1='492.31' x2='492.31' y1='0.00' y2='375.00'/>
        <line x1='500.59' x2='500.59' y1='0.00' y2='375.00'/>
        <line x1='508.88' x2='508.88' y1='0.00' y2='375.00'/>
        <line x1='517.16' x2='517.16' y1='0.00' y2='375.00'/>
        <line x1='525.44' x2='525.44' y1='0.00' y2='375.00'/>
        <line x1='533.73' x2='533.73' y1='0.00' y2='375.00'/>
        <line x1='542.01' x2='542.01' y1='0.00' y2='375.00'/>
        <line x1='550.30' x2='550.30' y1='0.00' y2='375.00'/>
        <line x1='558.58' x2='558.58' y1='0.00' y2='375.00'/>
        <line x1='566.86' x2='566.86' y1='0.00' y2='375.00'/>
        <line x1='575.15' x2='575.15' y1='0.00' y2='375.00'/>
        <line x1='583.43' x2='583.43' y1='0.00' y2='375.00'/>
        <line x1='591.72' x2='591.72' y1='0.00' y2='375.00'/>
        <line x1='600.00' x2='600.00' y1='0.00' y2='375.00'/>
      </g>
      <g fill='none' id='default' stroke='black'>
        <text class='titletext' style='fill: gray;stroke: none;font-family: Arial, Helvetica, sans-serif;;font-size: 24px;font-weight: bold;' x='42' y='20'>БСВ Сауле вх</text>
      </g>
      <g fill='none' id='default' stroke='black'>
        <polyline id='lineitem0' points='40.0,220.8 42.8,221.7 45.5,222.6 48.3,223.5 51.0,224.3 53.8,225.1 56.6,225.9 59.3,226.6 62.1,227.3 64.9,227.9 67.6,228.4 70.4,228.8 73.1,229.2 75.9,229.4 78.7,229.5 81.4,229.6 84.2,229.5 86.9,229.3 89.7,229.0 92.5,228.6 95.2,228.1 98.0,227.5 100.7,226.8 103.5,226.0 106.3,225.0 109.0,223.9 111.8,222.8 114.6,221.5 117.3,220.2 120.1,218.8 122.8,217.3 125.6,215.8 128.4,214.3 131.1,212.8 133.9,211.3 136.6,209.8 139.4,208.3 142.2,206.9 144.9,205.5 147.7,204.2 150.5,203.0 153.2,201.8 156.0,200.7 158.7,199.7 161.5,198.7 164.3,197.8 167.0,197.1 169.8,196.4 172.5,195.8 175.3,195.4 178.1,195.0 180.8,194.8 183.6,194.8 186.4,194.8 189.1,195.1 191.9,195.4 194.6,196.0 197.4,196.7 200.2,197.6 202.9,198.7 205.7,200.0 208.4,201.5 211.2,203.2 214.0,205.2 216.7,207.3 219.5,209.7 222.2,212.3 225.0,215.2 227.8,218.3 230.5,221.7 233.3,225.3 236.1,229.2 238.8,233.3 241.6,237.7 244.3,242.4 247.1,247.1 249.9,251.9 252.6,256.7 255.4,261.4 258.1,265.9 260.9,270.1 263.7,274.1 266.4,277.7 269.2,280.8 272.0,283.3 274.7,285.3 277.5,286.7 280.2,287.7 283.0,288.2 285.8,288.3 288.5,288.1 291.3,287.6 294.0,287.0 296.8,286.1 299.6,285.2 302.3,284.3 305.1,283.3 307.9,282.5 310.6,281.7 313.4,281.0 316.1,280.4 318.9,279.9 321.7,279.5 324.4,279.2 327.2,278.9 329.9,278.8 332.7,278.8 335.5,278.9 338.2,279.2 341.0,279.5 343.7,279.9 346.5,280.4 349.3,281.0 352.0,281.5 354.8,282.0 357.6,282.5 360.3,282.9 363.1,283.2 365.8,283.4 368.6,283.5 371.4,283.3 374.1,283.0 376.9,282.5 379.6,281.9 382.4,281.1 385.2,280.3 387.9,279.4 390.7,278.5 393.5,277.6 396.2,276.8 399.0,276.1 401.7,275.4 404.5,274.9 407.3,274.6 410.0,274.4 412.8,274.3 415.5,274.3 418.3,274.3 421.1,274.5 423.8,274.6 426.6,274.8 429.3,274.9 432.1,275.0 434.9,275.0 437.6,275.0 440.4,274.8 443.2,274.6 445.9,274.3 448.7,273.9 451.4,273.5 454.2,273.1 457.0,272.6 459.7,272.2 462.5,271.8 465.2,271.4 468.0,271.1 470.8,270.8 473.5,270.6 476.3,270.4 479.1,270.3 481.8,270.2 484.6,270.0 487.3,269.9 490.1,269.6 492.9,269.3 495.6,268.8 498.4,268.3 501.1,267.6 503.9,266.7 506.7,265.6 536.5,245.8 ' style='stroke: blue; stroke-width: 2;'/>
      </g>
      <g fill='none' id='default' stroke='black'>
        <g fill='none' id='legendpanel_mini' stroke='black'>
          <rect class='legendpanel' height='15' style='fill: white;fill-opacity: 0.5;' width='150' x='446' y='10'/>
          <a xlink:href='javascript:void(0);' target='_top'>
            <rect fill='white' gerbiltooltip1='Click to show a detailed legend' height='5' onclick='showDetailedLegend();' stroke='none' width='5' x='441' y='10'/>
          </a>
          <a xlink:href='javascript:void(0);' target='_top'>
            <text font-size='9' gerbiltooltip1='Click to show a detailed legend' onclick='showDetailedLegend();' stroke='#DDDDDD' x='439' y='15'>+</text>
          </a>
          <a xlink:href='javascript:void(0);' target='_top'>
            <rect fill='white' gerbiltooltip1='Click to move legend to left side' height='5' onclick='shiftLegend(-396);' stroke='none' width='5' x='441' y='25'/>
          </a>
          <a xlink:href='javascript:void(0);' target='_top'>
            <text font-size='9' gerbiltooltip1='Click to move legend to left side' onclick='shiftLegend(-396);' stroke='#DDDDDD' x='439' y='25'>&lt;</text>
          </a>
          <a xlink:href='javascript:void(0);' target='_top'>
            <rect fill='white' gerbiltooltip1='Click to move legend to right side' height='5' onclick='shiftLegend(0);' stroke='none' width='5' x='441' y='35'/>
          </a>
          <a xlink:href='javascript:void(0);' target='_top'>
            <text font-size='9' gerbiltooltip1='Click to move legend to right side' onclick='shiftLegend(0);' stroke='#DDDDDD' x='439' y='35'>&gt;</text>
          </a>
          <circle cx='455' cy='17' fill='gray' id='lbx0' onclick='ToggleVisibility(0)' r='4' stroke='none'/>
          <rect height='10' id='item0' style='stroke:blue;fill: blue;' width='10' x='466' y='12'/>
          <text class='legendtext' gerbiltooltip1='{:title=&gt;&quot;БСВ Сауле вх&quot;}' gerbiltooltip2='Latest Value = 4.1' onmouseout='OpacityUp(evt)' onmouseover='OpacityDown(evt)' style='font-family: Verdana, Geneva, Arial, Helvetica, sans-serif;font-size: 10px;fill: black;stroke: none;' title='БСВ Сауле вх' x='481' y='20'/>
        </g>
      </g>
      <g fill='none' id='default' stroke='black'>
        <g fill='none' id='legendpanel_detail' stroke='black' visibility='hidden'>
          <rect class='legendpanel' height='31' style='fill: white;fill-opacity: 0.5;' width='450' x='146' y='10'/>
          <a xlink:href='javascript:void(0);' target='_top'>
            <rect fill='white' gerbiltooltip1='Click to show compact legend' height='5' onclick='showMiniLegend();' stroke='none' width='5' x='141' y='10'/>
          </a>
          <a xlink:href='javascript:void(0);' target='_top'>
            <text font-size='9' gerbiltooltip1='Click to show compact legend' onclick='showMiniLegend();' stroke='#DDDDDD' x='142' y='15'>&gt;</text>
          </a>
          <text class='legendstats' xml:space='preserve' x='278' y='20'>      Max      Min      Avg   Latest    Total</text>
          <rect height='10' id='item0' style='stroke:blue;fill: blue;' width='10' x='148' y='28'/>
          <text class='legendtext' gerbiltooltip1='{:title=&gt;&quot;БСВ Сауле вх&quot;}' gerbiltooltip2='Latest Value = 4.1' onmouseout='OpacityUp(evt)' onmouseover='OpacityDown(evt)' style='font-family: Verdana, Geneva, Arial, Helvetica, sans-serif;font-size: 10px;fill: black;stroke: none;' title='БСВ Сауле вх' x='163' y='36'/>
          <text class='legendstats' xml:space='preserve' x='278' y='36'>      5.3      3.1        4      4.1      85 </text>
        </g>
      </g>
      <g fill='none' id='default' stroke='black'>
        <rect class='axispanel' height='375' style='fill: lightgray;' width='40' x='0' y='0'/>
        <text class='axislabel' style='font-family: sans;font-size: 10px;fill: black;stroke: none;' text-anchor='end' x='36' y='379.0'>1</text>
        <line class='axistickmajor' style='stroke-width: 2;stroke: black;' x1='39.00' x2='41.00' y1='375.00' y2='375.00'/>
        <text class='axislabel' style='font-family: sans;font-size: 10px;fill: black;stroke: none;' text-anchor='end' x='36' y='337.3333333333333'>2</text>
        <line class='axistickmajor' style='stroke-width: 2;stroke: black;' x1='39.00' x2='41.00' y1='333.33' y2='333.33'/>
        <text class='axislabel' style='font-family: sans;font-size: 10px;fill: black;stroke: none;' text-anchor='end' x='36' y='295.6666666666667'>3</text>
        <line class='axistickmajor' style='stroke-width: 2;stroke: black;' x1='39.00' x2='41.00' y1='291.67' y2='291.67'/>
        <text class='axislabel' style='font-family: sans;font-size: 10px;fill: black;stroke: none;' text-anchor='end' x='36' y='254.0'>4</text>
        <line class='axistickmajor' style='stroke-width: 2;stroke: black;' x1='39.00' x2='41.00' y1='250.00' y2='250.00'/>
        <text class='axislabel' style='font-family: sans;font-size: 10px;fill: black;stroke: none;' text-anchor='end' x='36' y='212.33333333333334'>5</text>
        <line class='axistickmajor' style='stroke-width: 2;stroke: black;' x1='39.00' x2='41.00' y1='208.33' y2='208.33'/>
        <text class='axislabel' style='font-family: sans;font-size: 10px;fill: black;stroke: none;' text-anchor='end' x='36' y='170.66666666666666'>6</text>
        <line class='axistickmajor' style='stroke-width: 2;stroke: black;' x1='39.00' x2='41.00' y1='166.67' y2='166.67'/>
        <text class='axislabel' style='font-family: sans;font-size: 10px;fill: black;stroke: none;' text-anchor='end' x='36' y='129.0'>7</text>
        <line class='axistickmajor' style='stroke-width: 2;stroke: black;' x1='39.00' x2='41.00' y1='125.00' y2='125.00'/>
        <text class='axislabel' style='font-family: sans;font-size: 10px;fill: black;stroke: none;' text-anchor='end' x='36' y='87.33333333333331'>8</text>
        <line class='axistickmajor' style='stroke-width: 2;stroke: black;' x1='39.00' x2='41.00' y1='83.33' y2='83.33'/>
        <text class='axislabel' style='font-family: sans;font-size: 10px;fill: black;stroke: none;' text-anchor='end' x='36' y='45.666666666666686'>9</text>
        <line class='axistickmajor' style='stroke-width: 2;stroke: black;' x1='39.00' x2='41.00' y1='41.67' y2='41.67'/>
        <text class='axislabel' style='font-family: sans;font-size: 10px;fill: black;stroke: none;' text-anchor='end' x='36' y='10'>10</text>
        <line class='axistickmajor' style='stroke-width: 2;stroke: black;' x1='39.00' x2='41.00' y1='0.00' y2='0.00'/>
      </g>
      <g fill='none' id='default' stroke='black'>
        <rect class='axispanel' height='25' style='fill: lightgray;' width='560' x='40' y='375'/>
        <text class='axislabel' style='font-family: sans;font-size: 10px;fill: black;stroke: none;' text-anchor='middle' x='69.82248520710058' y='386'>02:00</text>
        <line class='axistickmajor' style='stroke-width: 2;stroke: black;' x1='69.82' x2='69.82' y1='373.00' y2='376.00'/>
        <text class='axislabel' style='font-family: sans;font-size: 10px;fill: black;stroke: none;' text-anchor='middle' x='136.09467455621302' y='386'>04:00</text>
        <line class='axistickmajor' style='stroke-width: 2;stroke: black;' x1='136.09' x2='136.09' y1='373.00' y2='376.00'/>
        <text class='axislabel' style='font-family: sans;font-size: 10px;fill: black;stroke: none;' text-anchor='middle' x='202.36686390532543' y='386'>06:00</text>
        <line class='axistickmajor' style='stroke-width: 2;stroke: black;' x1='202.37' x2='202.37' y1='373.00' y2='376.00'/>
        <text class='axislabel' style='font-family: sans;font-size: 10px;fill: black;stroke: none;' text-anchor='middle' x='268.63905325443784' y='386'>08:00</text>
        <line class='axistickmajor' style='stroke-width: 2;stroke: black;' x1='268.64' x2='268.64' y1='373.00' y2='376.00'/>
        <text class='axislabel' style='font-family: sans;font-size: 10px;fill: black;stroke: none;' text-anchor='middle' x='334.9112426035503' y='386'>10:00</text>
        <line class='axistickmajor' style='stroke-width: 2;stroke: black;' x1='334.91' x2='334.91' y1='373.00' y2='376.00'/>
        <text class='axislabel' style='font-family: sans;font-size: 10px;fill: black;stroke: none;' text-anchor='middle' x='401.1834319526627' y='386'>12:00</text>
        <line class='axistickmajor' style='stroke-width: 2;stroke: black;' x1='401.18' x2='401.18' y1='373.00' y2='376.00'/>
        <text class='axislabel' style='font-family: sans;font-size: 10px;fill: black;stroke: none;' text-anchor='middle' x='467.4556213017752' y='386'>14:00</text>
        <line class='axistickmajor' style='stroke-width: 2;stroke: black;' x1='467.46' x2='467.46' y1='373.00' y2='376.00'/>
        <text class='axislabel' style='font-family: sans;font-size: 10px;fill: black;stroke: none;' text-anchor='middle' x='533.7278106508875' y='386'>16:00</text>
        <line class='axistickmajor' style='stroke-width: 2;stroke: black;' x1='533.73' x2='533.73' y1='373.00' y2='376.00'/>
        <text class='axislabel' style='font-family: sans;font-size: 10px;fill: black;stroke: none;' text-anchor='middle' x='590' y='386'>18:00</text>
        <line class='axistickmajor' style='stroke-width: 2;stroke: black;' x1='590.00' x2='590.00' y1='373.00' y2='376.00'/>
        <text class='axislabelt0' style='font-family: sans;font-size: 8px;fill: black;stroke: none;' x='20' y='397'>2013-04-29 01:06:00 +0600</text>
        <line class='axistickmajor' style='stroke-width: 2;stroke: black;' x1='40.00' x2='40.00' y1='375.00' y2='377.00'/>
      </g>
    </g>
  </g>
</svg>
