<?xml version='1.0' encoding='UTF-8'?>
<!DOCTYPE svg PUBLIC "-//W3C//DTD SVG 1.1//EN" "http://www.w3.org/Graphics/SVG/1.1/DTD/svg11.dtd"><svg height='400' version='1.1' width='1024' xmlns:xlink='http://www.w3.org/1999/xlink' xmlns='http://www.w3.org/2000/svg'>
  <defs>
    <linearGradient id='vertgrad' x1='0%' x2='0%' y1='0%' y2='100%'>
      <stop offset='0%' style='stop-color:rgb(255,255,255)'/>
      <stop offset='100%' style='stop-color:rgb(192,192,192)'/>
    </linearGradient>
  </defs>
  <g id='GerbilSVGGraph'>
    <g fill='none' id='Gerbil_Root_Window' stroke='black'>
      <g fill='none' id='default' stroke='black'>
        <rect class='surfaceback' height='375' style='fill: url(#vertgrad);' width='984' x='40' y='0'/>
      </g>
      <g fill='none' id='default' stroke='black'>
        <g class='gridlineh' fill='none' id='hgrid' stroke='black' style='stroke-width: 1;stroke: lightgray;'>
          <line x1='40.00' x2='1024.00' y1='375.00' y2='375.00'/>
          <line x1='40.00' x2='1024.00' y1='300.00' y2='300.00'/>
          <line x1='40.00' x2='1024.00' y1='225.00' y2='225.00'/>
          <line x1='40.00' x2='1024.00' y1='150.00' y2='150.00'/>
          <line x1='40.00' x2='1024.00' y1='75.00' y2='75.00'/>
          <line x1='40.00' x2='1024.00' y1='0.00' y2='0.00'/>
        </g>
      </g>
      <g class='gridlinesub' fill='none' id='hgridsub' stroke='black'>
      </g>
      <g class='gridlinev' fill='none' id='vgrid' stroke='black' style='stroke-width: 1;stroke: lightgray;'>
        <line x1='36.57' x2='36.57' y1='0.00' y2='375.00'/>
        <line x1='118.86' x2='118.86' y1='0.00' y2='375.00'/>
        <line x1='201.14' x2='201.14' y1='0.00' y2='375.00'/>
        <line x1='283.43' x2='283.43' y1='0.00' y2='375.00'/>
        <line x1='365.71' x2='365.71' y1='0.00' y2='375.00'/>
        <line x1='448.00' x2='448.00' y1='0.00' y2='375.00'/>
        <line x1='530.29' x2='530.29' y1='0.00' y2='375.00'/>
        <line x1='612.57' x2='612.57' y1='0.00' y2='375.00'/>
        <line x1='694.86' x2='694.86' y1='0.00' y2='375.00'/>
        <line x1='777.14' x2='777.14' y1='0.00' y2='375.00'/>
        <line x1='859.43' x2='859.43' y1='0.00' y2='375.00'/>
        <line x1='941.71' x2='941.71' y1='0.00' y2='375.00'/>
        <line x1='1024.00' x2='1024.00' y1='0.00' y2='375.00'/>
      </g>
      <g class='gridlinesub' fill='none' id='vgridsub' stroke='black'>
        <line x1='36.57' x2='36.57' y1='0.00' y2='375.00'/>
        <line x1='46.86' x2='46.86' y1='0.00' y2='375.00'/>
        <line x1='57.14' x2='57.14' y1='0.00' y2='375.00'/>
        <line x1='67.43' x2='67.43' y1='0.00' y2='375.00'/>
        <line x1='77.71' x2='77.71' y1='0.00' y2='375.00'/>
        <line x1='88.00' x2='88.00' y1='0.00' y2='375.00'/>
        <line x1='98.29' x2='98.29' y1='0.00' y2='375.00'/>
        <line x1='108.57' x2='108.57' y1='0.00' y2='375.00'/>
        <line x1='118.86' x2='118.86' y1='0.00' y2='375.00'/>
        <line x1='129.14' x2='129.14' y1='0.00' y2='375.00'/>
        <line x1='139.43' x2='139.43' y1='0.00' y2='375.00'/>
        <line x1='149.71' x2='149.71' y1='0.00' y2='375.00'/>
        <line x1='160.00' x2='160.00' y1='0.00' y2='375.00'/>
        <line x1='170.29' x2='170.29' y1='0.00' y2='375.00'/>
        <line x1='180.57' x2='180.57' y1='0.00' y2='375.00'/>
        <line x1='190.86' x2='190.86' y1='0.00' y2='375.00'/>
        <line x1='201.14' x2='201.14' y1='0.00' y2='375.00'/>
        <line x1='211.43' x2='211.43' y1='0.00' y2='375.00'/>
        <line x1='221.71' x2='221.71' y1='0.00' y2='375.00'/>
        <line x1='232.00' x2='232.00' y1='0.00' y2='375.00'/>
        <line x1='242.29' x2='242.29' y1='0.00' y2='375.00'/>
        <line x1='252.57' x2='252.57' y1='0.00' y2='375.00'/>
        <line x1='262.86' x2='262.86' y1='0.00' y2='375.00'/>
        <line x1='273.14' x2='273.14' y1='0.00' y2='375.00'/>
        <line x1='283.43' x2='283.43' y1='0.00' y2='375.00'/>
        <line x1='293.71' x2='293.71' y1='0.00' y2='375.00'/>
        <line x1='304.00' x2='304.00' y1='0.00' y2='375.00'/>
        <line x1='314.29' x2='314.29' y1='0.00' y2='375.00'/>
        <line x1='324.57' x2='324.57' y1='0.00' y2='375.00'/>
        <line x1='334.86' x2='334.86' y1='0.00' y2='375.00'/>
        <line x1='345.14' x2='345.14' y1='0.00' y2='375.00'/>
        <line x1='355.43' x2='355.43' y1='0.00' y2='375.00'/>
        <line x1='365.71' x2='365.71' y1='0.00' y2='375.00'/>
        <line x1='376.00' x2='376.00' y1='0.00' y2='375.00'/>
        <line x1='386.29' x2='386.29' y1='0.00' y2='375.00'/>
        <line x1='396.57' x2='396.57' y1='0.00' y2='375.00'/>
        <line x1='406.86' x2='406.86' y1='0.00' y2='375.00'/>
        <line x1='417.14' x2='417.14' y1='0.00' y2='375.00'/>
        <line x1='427.43' x2='427.43' y1='0.00' y2='375.00'/>
        <line x1='437.71' x2='437.71' y1='0.00' y2='375.00'/>
        <line x1='448.00' x2='448.00' y1='0.00' y2='375.00'/>
        <line x1='458.29' x2='458.29' y1='0.00' y2='375.00'/>
        <line x1='468.57' x2='468.57' y1='0.00' y2='375.00'/>
        <line x1='478.86' x2='478.86' y1='0.00' y2='375.00'/>
        <line x1='489.14' x2='489.14' y1='0.00' y2='375.00'/>
        <line x1='499.43' x2='499.43' y1='0.00' y2='375.00'/>
        <line x1='509.71' x2='509.71' y1='0.00' y2='375.00'/>
        <line x1='520.00' x2='520.00' y1='0.00' y2='375.00'/>
        <line x1='530.29' x2='530.29' y1='0.00' y2='375.00'/>
        <line x1='540.57' x2='540.57' y1='0.00' y2='375.00'/>
        <line x1='550.86' x2='550.86' y1='0.00' y2='375.00'/>
        <line x1='561.14' x2='561.14' y1='0.00' y2='375.00'/>
        <line x1='571.43' x2='571.43' y1='0.00' y2='375.00'/>
        <line x1='581.71' x2='581.71' y1='0.00' y2='375.00'/>
        <line x1='592.00' x2='592.00' y1='0.00' y2='375.00'/>
        <line x1='602.29' x2='602.29' y1='0.00' y2='375.00'/>
        <line x1='612.57' x2='612.57' y1='0.00' y2='375.00'/>
        <line x1='622.86' x2='622.86' y1='0.00' y2='375.00'/>
        <line x1='633.14' x2='633.14' y1='0.00' y2='375.00'/>
        <line x1='643.43' x2='643.43' y1='0.00' y2='375.00'/>
        <line x1='653.71' x2='653.71' y1='0.00' y2='375.00'/>
        <line x1='664.00' x2='664.00' y1='0.00' y2='375.00'/>
        <line x1='674.29' x2='674.29' y1='0.00' y2='375.00'/>
        <line x1='684.57' x2='684.57' y1='0.00' y2='375.00'/>
        <line x1='694.86' x2='694.86' y1='0.00' y2='375.00'/>
        <line x1='705.14' x2='705.14' y1='0.00' y2='375.00'/>
        <line x1='715.43' x2='715.43' y1='0.00' y2='375.00'/>
        <line x1='725.71' x2='725.71' y1='0.00' y2='375.00'/>
        <line x1='736.00' x2='736.00' y1='0.00' y2='375.00'/>
        <line x1='746.29' x2='746.29' y1='0.00' y2='375.00'/>
        <line x1='756.57' x2='756.57' y1='0.00' y2='375.00'/>
        <line x1='766.86' x2='766.86' y1='0.00' y2='375.00'/>
        <line x1='777.14' x2='777.14' y1='0.00' y2='375.00'/>
        <line x1='787.43' x2='787.43' y1='0.00' y2='375.00'/>
        <line x1='797.71' x2='797.71' y1='0.00' y2='375.00'/>
        <line x1='808.00' x2='808.00' y1='0.00' y2='375.00'/>
        <line x1='818.29' x2='818.29' y1='0.00' y2='375.00'/>
        <line x1='828.57' x2='828.57' y1='0.00' y2='375.00'/>
        <line x1='838.86' x2='838.86' y1='0.00' y2='375.00'/>
        <line x1='849.14' x2='849.14' y1='0.00' y2='375.00'/>
        <line x1='859.43' x2='859.43' y1='0.00' y2='375.00'/>
        <line x1='869.71' x2='869.71' y1='0.00' y2='375.00'/>
        <line x1='880.00' x2='880.00' y1='0.00' y2='375.00'/>
        <line x1='890.29' x2='890.29' y1='0.00' y2='375.00'/>
        <line x1='900.57' x2='900.57' y1='0.00' y2='375.00'/>
        <line x1='910.86' x2='910.86' y1='0.00' y2='375.00'/>
        <line x1='921.14' x2='921.14' y1='0.00' y2='375.00'/>
        <line x1='931.43' x2='931.43' y1='0.00' y2='375.00'/>
        <line x1='941.71' x2='941.71' y1='0.00' y2='375.00'/>
        <line x1='952.00' x2='952.00' y1='0.00' y2='375.00'/>
        <line x1='962.29' x2='962.29' y1='0.00' y2='375.00'/>
        <line x1='972.57' x2='972.57' y1='0.00' y2='375.00'/>
        <line x1='982.86' x2='982.86' y1='0.00' y2='375.00'/>
        <line x1='993.14' x2='993.14' y1='0.00' y2='375.00'/>
        <line x1='1003.43' x2='1003.43' y1='0.00' y2='375.00'/>
        <line x1='1013.71' x2='1013.71' y1='0.00' y2='375.00'/>
        <line x1='1024.00' x2='1024.00' y1='0.00' y2='375.00'/>
      </g>
      <g fill='none' id='default' stroke='black'>
        <text class='titletext' style='fill: gray;stroke: none;font-family: Arial, Helvetica, sans-serif;;font-size: 24px;font-weight: bold;' x='42' y='20'>Короткий</text>
      </g>
      <g fill='none' id='default' stroke='black'>
        <polyline id='lineitem0' points='40.0,196.9 46.9,187.5 53.7,187.5 60.6,187.5 67.4,234.4 74.3,225.0 81.1,225.0 88.0,337.5 94.9,234.4 101.7,206.3 108.6,206.3 115.4,196.9 122.3,196.9 129.1,187.5 136.0,187.5 142.9,187.5 149.7,187.5 156.6,187.5 163.4,187.5 170.3,187.5 177.8,187.5 184.7,187.5 191.5,187.5 198.4,187.5 326.6,187.5 328.7,187.5 330.7,187.5 332.8,187.5 337.6,187.5 339.7,187.5 341.7,196.9 343.8,206.3 345.8,206.3 349.3,206.3 356.1,206.3 402.7,215.6 404.8,225.0 406.9,234.4 408.2,225.0 410.3,225.0 412.3,215.6 414.4,206.3 415.8,215.6 417.8,215.6 424.7,225.0 431.5,234.4 438.4,234.4 445.3,234.4 453.5,215.6 459.0,225.0 465.8,225.0 472.7,225.0 479.5,215.6 486.4,225.0 493.3,215.6 500.1,215.6 507.0,225.0 513.8,215.6 520.7,206.3 527.5,206.3 534.4,215.6 541.3,225.0 548.1,215.6 555.0,215.6 561.8,234.4 568.7,215.6 575.5,215.6 582.4,225.0 589.3,215.6 596.1,215.6 603.0,215.6 609.8,206.3 616.7,206.3 623.5,206.3 630.4,215.6 637.3,215.6 644.1,206.3 651.0,206.3 657.8,215.6 664.7,215.6 671.5,206.3 678.4,206.3 685.3,206.3 692.1,206.3 699.0,215.6 705.8,225.0 712.7,215.6 719.5,225.0 726.4,225.0 733.3,225.0 740.1,225.0 747.7,225.0 753.8,225.0 760.7,215.6 767.5,225.0 774.4,215.6 781.3,225.0 788.1,234.4 795.7,234.4 803.2,243.8 808.7,234.4 815.5,243.8 822.4,243.8 829.3,253.1 836.1,253.1 843.0,243.8 849.8,253.1 856.7,253.1 863.5,253.1 870.4,253.1 877.3,234.4 884.1,234.4 891.0,243.8 897.8,243.8 904.7,253.1 911.5,234.4 919.1,234.4 925.9,225.0 932.8,215.6 939.7,234.4 946.5,243.8 953.4,234.4 959.5,234.4 966.4,215.6 973.3,234.4 980.1,234.4 987.0,225.0 993.8,225.0 1000.7,225.0 1007.5,215.6 1014.4,206.3 1021.3,215.6 ' style='stroke: blue; stroke-width: 2;'/>
      </g>
      <g fill='none' id='default' stroke='black'>
        <g fill='none' id='legendpanel_mini' stroke='black'>
          <rect class='legendpanel' height='15' style='fill: white;fill-opacity: 0.5;' width='256' x='764' y='10'/>
          <a xlink:href='javascript:void(0);' target='_top'>
            <rect fill='white' gerbiltooltip1='Click to show a detailed legend' height='5' onclick='showDetailedLegend();' stroke='none' width='5' x='759' y='10'/>
          </a>
          <a xlink:href='javascript:void(0);' target='_top'>
            <text font-size='9' gerbiltooltip1='Click to show a detailed legend' onclick='showDetailedLegend();' stroke='#DDDDDD' x='757' y='15'>+</text>
          </a>
          <a xlink:href='javascript:void(0);' target='_top'>
            <rect fill='white' gerbiltooltip1='Click to move legend to left side' height='5' onclick='shiftLegend(-714);' stroke='none' width='5' x='759' y='25'/>
          </a>
          <a xlink:href='javascript:void(0);' target='_top'>
            <text font-size='9' gerbiltooltip1='Click to move legend to left side' onclick='shiftLegend(-714);' stroke='#DDDDDD' x='757' y='25'>&lt;</text>
          </a>
          <a xlink:href='javascript:void(0);' target='_top'>
            <rect fill='white' gerbiltooltip1='Click to move legend to right side' height='5' onclick='shiftLegend(0);' stroke='none' width='5' x='759' y='35'/>
          </a>
          <a xlink:href='javascript:void(0);' target='_top'>
            <text font-size='9' gerbiltooltip1='Click to move legend to right side' onclick='shiftLegend(0);' stroke='#DDDDDD' x='757' y='35'>&gt;</text>
          </a>
          <circle cx='773' cy='17' fill='gray' id='lbx0' onclick='ToggleVisibility(0)' r='4' stroke='none'/>
          <rect height='10' id='item0' style='stroke:blue;fill: blue;' width='10' x='784' y='12'/>
          <text class='legendtext' gerbiltooltip1='{:title=&gt;&quot;\u041A\u043E\u0440\u043E\u0442\u043A\u0438\u0439&quot;}' gerbiltooltip2='Latest Value = 2.7' onmouseout='OpacityUp(evt)' onmouseover='OpacityDown(evt)' style='font-family: Verdana, Geneva, Arial, Helvetica, sans-serif;font-size: 10px;fill: black;stroke: none;' title='Короткий' x='799' y='20'/>
        </g>
      </g>
      <g fill='none' id='default' stroke='black'>
        <g fill='none' id='legendpanel_detail' stroke='black' visibility='hidden'>
          <rect class='legendpanel' height='31' style='fill: white;fill-opacity: 0.5;' width='500' x='520' y='10'/>
          <a xlink:href='javascript:void(0);' target='_top'>
            <rect fill='white' gerbiltooltip1='Click to show compact legend' height='5' onclick='showMiniLegend();' stroke='none' width='5' x='515' y='10'/>
          </a>
          <a xlink:href='javascript:void(0);' target='_top'>
            <text font-size='9' gerbiltooltip1='Click to show compact legend' onclick='showMiniLegend();' stroke='#DDDDDD' x='516' y='15'>&gt;</text>
          </a>
          <text class='legendstats' xml:space='preserve' x='652' y='20'>      Max      Min      Avg   Latest</text>
          <rect height='10' id='item0' style='stroke:blue;fill: blue;' width='10' x='522' y='28'/>
          <text class='legendtext' gerbiltooltip1='{:title=&gt;&quot;\u041A\u043E\u0440\u043E\u0442\u043A\u0438\u0439&quot;}' gerbiltooltip2='Latest Value = 2.7' onmouseout='OpacityUp(evt)' onmouseover='OpacityDown(evt)' style='font-family: Verdana, Geneva, Arial, Helvetica, sans-serif;font-size: 10px;fill: black;stroke: none;' title='Короткий' x='537' y='36'/>
          <text class='legendstats' xml:space='preserve' x='652' y='36'>        3      1.4      2.7      2.7</text>
        </g>
      </g>
      <g fill='none' id='default' stroke='black'>
        <rect class='axispanel' height='375' style='fill: lightgray;' width='40' x='0' y='0'/>
        <text class='axislabel' style='font-family: sans;font-size: 10px;fill: black;stroke: none;' text-anchor='end' x='36' y='379.0'>1</text>
        <line class='axistickmajor' style='stroke-width: 2;stroke: black;' x1='39.00' x2='41.00' y1='375.00' y2='375.00'/>
        <text class='axislabel' style='font-family: sans;font-size: 10px;fill: black;stroke: none;' text-anchor='end' x='36' y='285.25'>2</text>
        <line class='axistickmajor' style='stroke-width: 2;stroke: black;' x1='39.00' x2='41.00' y1='281.25' y2='281.25'/>
        <text class='axislabel' style='font-family: sans;font-size: 10px;fill: black;stroke: none;' text-anchor='end' x='36' y='191.5'>3</text>
        <line class='axistickmajor' style='stroke-width: 2;stroke: black;' x1='39.00' x2='41.00' y1='187.50' y2='187.50'/>
        <text class='axislabel' style='font-family: sans;font-size: 10px;fill: black;stroke: none;' text-anchor='end' x='36' y='97.75'>4</text>
        <line class='axistickmajor' style='stroke-width: 2;stroke: black;' x1='39.00' x2='41.00' y1='93.75' y2='93.75'/>
        <text class='axislabel' style='font-family: sans;font-size: 10px;fill: black;stroke: none;' text-anchor='end' x='36' y='10'>5</text>
        <line class='axistickmajor' style='stroke-width: 2;stroke: black;' x1='39.00' x2='41.00' y1='0.00' y2='0.00'/>
      </g>
      <g fill='none' id='default' stroke='black'>
        <rect class='axispanel' height='25' style='fill: lightgray;' width='984' x='40' y='375'/>
        <text class='axislabel' style='font-family: sans;font-size: 10px;fill: black;stroke: none;' text-anchor='middle' x='36.57142857142857' y='386'>Aug-06</text>
        <line class='axistickmajor' style='stroke-width: 2;stroke: black;' x1='36.57' x2='36.57' y1='373.00' y2='376.00'/>
        <text class='axislabel' style='font-family: sans;font-size: 10px;fill: black;stroke: none;' text-anchor='middle' x='118.85714285714285' y='386'>02:00</text>
        <line class='axistickmajor' style='stroke-width: 2;stroke: black;' x1='118.86' x2='118.86' y1='373.00' y2='376.00'/>
        <text class='axislabel' style='font-family: sans;font-size: 10px;fill: black;stroke: none;' text-anchor='middle' x='201.14285714285714' y='386'>04:00</text>
        <line class='axistickmajor' style='stroke-width: 2;stroke: black;' x1='201.14' x2='201.14' y1='373.00' y2='376.00'/>
        <text class='axislabel' style='font-family: sans;font-size: 10px;fill: black;stroke: none;' text-anchor='middle' x='283.42857142857144' y='386'>06:00</text>
        <line class='axistickmajor' style='stroke-width: 2;stroke: black;' x1='283.43' x2='283.43' y1='373.00' y2='376.00'/>
        <text class='axislabel' style='font-family: sans;font-size: 10px;fill: black;stroke: none;' text-anchor='middle' x='365.7142857142857' y='386'>08:00</text>
        <line class='axistickmajor' style='stroke-width: 2;stroke: black;' x1='365.71' x2='365.71' y1='373.00' y2='376.00'/>
        <text class='axislabel' style='font-family: sans;font-size: 10px;fill: black;stroke: none;' text-anchor='middle' x='448.0' y='386'>10:00</text>
        <line class='axistickmajor' style='stroke-width: 2;stroke: black;' x1='448.00' x2='448.00' y1='373.00' y2='376.00'/>
        <text class='axislabel' style='font-family: sans;font-size: 10px;fill: black;stroke: none;' text-anchor='middle' x='530.2857142857142' y='386'>12:00</text>
        <line class='axistickmajor' style='stroke-width: 2;stroke: black;' x1='530.29' x2='530.29' y1='373.00' y2='376.00'/>
        <text class='axislabel' style='font-family: sans;font-size: 10px;fill: black;stroke: none;' text-anchor='middle' x='612.5714285714286' y='386'>14:00</text>
        <line class='axistickmajor' style='stroke-width: 2;stroke: black;' x1='612.57' x2='612.57' y1='373.00' y2='376.00'/>
        <text class='axislabel' style='font-family: sans;font-size: 10px;fill: black;stroke: none;' text-anchor='middle' x='694.8571428571428' y='386'>16:00</text>
        <line class='axistickmajor' style='stroke-width: 2;stroke: black;' x1='694.86' x2='694.86' y1='373.00' y2='376.00'/>
        <text class='axislabel' style='font-family: sans;font-size: 10px;fill: black;stroke: none;' text-anchor='middle' x='777.1428571428571' y='386'>18:00</text>
        <line class='axistickmajor' style='stroke-width: 2;stroke: black;' x1='777.14' x2='777.14' y1='373.00' y2='376.00'/>
        <text class='axislabel' style='font-family: sans;font-size: 10px;fill: black;stroke: none;' text-anchor='middle' x='859.4285714285714' y='386'>20:00</text>
        <line class='axistickmajor' style='stroke-width: 2;stroke: black;' x1='859.43' x2='859.43' y1='373.00' y2='376.00'/>
        <text class='axislabel' style='font-family: sans;font-size: 10px;fill: black;stroke: none;' text-anchor='middle' x='941.7142857142858' y='386'>22:00</text>
        <line class='axistickmajor' style='stroke-width: 2;stroke: black;' x1='941.71' x2='941.71' y1='373.00' y2='376.00'/>
        <text class='axislabel' style='font-family: sans;font-size: 10px;fill: black;stroke: none;' text-anchor='middle' x='1014' y='386'>Aug-07</text>
        <line class='axistickmajor' style='stroke-width: 2;stroke: black;' x1='1014.00' x2='1014.00' y1='373.00' y2='376.00'/>
        <text class='axislabelt0' style='font-family: sans;font-size: 8px;fill: black;stroke: none;' x='20' y='397'>2013-08-06 00:05:00 +0600</text>
        <line class='axistickmajor' style='stroke-width: 2;stroke: black;' x1='40.00' x2='40.00' y1='375.00' y2='377.00'/>
      </g>
    </g>
  </g>
</svg>
