<?xml version='1.0' encoding='UTF-8'?>
<!DOCTYPE svg PUBLIC "-//W3C//DTD SVG 1.1//EN" "http://www.w3.org/Graphics/SVG/1.1/DTD/svg11.dtd"><svg height='400' version='1.1' width='600' xmlns:xlink='http://www.w3.org/1999/xlink' xmlns='http://www.w3.org/2000/svg'>
  <defs>
    <linearGradient id='vertgrad' x1='0%' x2='0%' y1='0%' y2='100%'>
      <stop offset='0%' style='stop-color:rgb(255,255,255)'/>
      <stop offset='100%' style='stop-color:rgb(192,192,192)'/>
    </linearGradient>
  </defs>
  <g id='GerbilSVGGraph'>
    <g fill='none' id='Gerbil_Root_Window' stroke='black'>
      <g fill='none' id='default' stroke='black'>
        <rect class='surfaceback' height='375' style='fill: url(#vertgrad);' width='560' x='40' y='0'/>
      </g>
      <g fill='none' id='default' stroke='black'>
        <g class='gridlineh' fill='none' id='hgrid' stroke='black' style='stroke-width: 1;stroke: lightgray;'>
          <line x1='40.00' x2='600.00' y1='375.00' y2='375.00'/>
          <line x1='40.00' x2='600.00' y1='337.50' y2='337.50'/>
          <line x1='40.00' x2='600.00' y1='300.00' y2='300.00'/>
          <line x1='40.00' x2='600.00' y1='262.50' y2='262.50'/>
          <line x1='40.00' x2='600.00' y1='225.00' y2='225.00'/>
          <line x1='40.00' x2='600.00' y1='187.50' y2='187.50'/>
          <line x1='40.00' x2='600.00' y1='150.00' y2='150.00'/>
          <line x1='40.00' x2='600.00' y1='112.50' y2='112.50'/>
          <line x1='40.00' x2='600.00' y1='75.00' y2='75.00'/>
          <line x1='40.00' x2='600.00' y1='37.50' y2='37.50'/>
          <line x1='40.00' x2='600.00' y1='0.00' y2='0.00'/>
        </g>
      </g>
      <g class='gridlinesub' fill='none' id='hgridsub' stroke='black'>
      </g>
      <g class='gridlinev' fill='none' id='vgrid' stroke='black' style='stroke-width: 1;stroke: lightgray;'>
        <line x1='13.10' x2='13.10' y1='0.00' y2='375.00'/>
        <line x1='62.01' x2='62.01' y1='0.00' y2='375.00'/>
        <line x1='110.92' x2='110.92' y1='0.00' y2='375.00'/>
        <line x1='159.83' x2='159.83' y1='0.00' y2='375.00'/>
        <line x1='208.73' x2='208.73' y1='0.00' y2='375.00'/>
        <line x1='257.64' x2='257.64' y1='0.00' y2='375.00'/>
        <line x1='306.55' x2='306.55' y1='0.00' y2='375.00'/>
        <line x1='355.46' x2='355.46' y1='0.00' y2='375.00'/>
        <line x1='404.37' x2='404.37' y1='0.00' y2='375.00'/>
        <line x1='453.28' x2='453.28' y1='0.00' y2='375.00'/>
        <line x1='502.18' x2='502.18' y1='0.00' y2='375.00'/>
        <line x1='551.09' x2='551.09' y1='0.00' y2='375.00'/>
        <line x1='600.00' x2='600.00' y1='0.00' y2='375.00'/>
      </g>
      <g class='gridlinesub' fill='none' id='vgridsub' stroke='black'>
        <line x1='13.10' x2='13.10' y1='0.00' y2='375.00'/>
        <line x1='19.21' x2='19.21' y1='0.00' y2='375.00'/>
        <line x1='25.33' x2='25.33' y1='0.00' y2='375.00'/>
        <line x1='31.44' x2='31.44' y1='0.00' y2='375.00'/>
        <line x1='37.55' x2='37.55' y1='0.00' y2='375.00'/>
        <line x1='43.67' x2='43.67' y1='0.00' y2='375.00'/>
        <line x1='49.78' x2='49.78' y1='0.00' y2='375.00'/>
        <line x1='55.90' x2='55.90' y1='0.00' y2='375.00'/>
        <line x1='62.01' x2='62.01' y1='0.00' y2='375.00'/>
        <line x1='68.12' x2='68.12' y1='0.00' y2='375.00'/>
        <line x1='74.24' x2='74.24' y1='0.00' y2='375.00'/>
        <line x1='80.35' x2='80.35' y1='0.00' y2='375.00'/>
        <line x1='86.46' x2='86.46' y1='0.00' y2='375.00'/>
        <line x1='92.58' x2='92.58' y1='0.00' y2='375.00'/>
        <line x1='98.69' x2='98.69' y1='0.00' y2='375.00'/>
        <line x1='104.80' x2='104.80' y1='0.00' y2='375.00'/>
        <line x1='110.92' x2='110.92' y1='0.00' y2='375.00'/>
        <line x1='117.03' x2='117.03' y1='0.00' y2='375.00'/>
        <line x1='123.14' x2='123.14' y1='0.00' y2='375.00'/>
        <line x1='129.26' x2='129.26' y1='0.00' y2='375.00'/>
        <line x1='135.37' x2='135.37' y1='0.00' y2='375.00'/>
        <line x1='141.48' x2='141.48' y1='0.00' y2='375.00'/>
        <line x1='147.60' x2='147.60' y1='0.00' y2='375.00'/>
        <line x1='153.71' x2='153.71' y1='0.00' y2='375.00'/>
        <line x1='159.83' x2='159.83' y1='0.00' y2='375.00'/>
        <line x1='165.94' x2='165.94' y1='0.00' y2='375.00'/>
        <line x1='172.05' x2='172.05' y1='0.00' y2='375.00'/>
        <line x1='178.17' x2='178.17' y1='0.00' y2='375.00'/>
        <line x1='184.28' x2='184.28' y1='0.00' y2='375.00'/>
        <line x1='190.39' x2='190.39' y1='0.00' y2='375.00'/>
        <line x1='196.51' x2='196.51' y1='0.00' y2='375.00'/>
        <line x1='202.62' x2='202.62' y1='0.00' y2='375.00'/>
        <line x1='208.73' x2='208.73' y1='0.00' y2='375.00'/>
        <line x1='214.85' x2='214.85' y1='0.00' y2='375.00'/>
        <line x1='220.96' x2='220.96' y1='0.00' y2='375.00'/>
        <line x1='227.07' x2='227.07' y1='0.00' y2='375.00'/>
        <line x1='233.19' x2='233.19' y1='0.00' y2='375.00'/>
        <line x1='239.30' x2='239.30' y1='0.00' y2='375.00'/>
        <line x1='245.41' x2='245.41' y1='0.00' y2='375.00'/>
        <line x1='251.53' x2='251.53' y1='0.00' y2='375.00'/>
        <line x1='257.64' x2='257.64' y1='0.00' y2='375.00'/>
        <line x1='263.76' x2='263.76' y1='0.00' y2='375.00'/>
        <line x1='269.87' x2='269.87' y1='0.00' y2='375.00'/>
        <line x1='275.98' x2='275.98' y1='0.00' y2='375.00'/>
        <line x1='282.10' x2='282.10' y1='0.00' y2='375.00'/>
        <line x1='288.21' x2='288.21' y1='0.00' y2='375.00'/>
        <line x1='294.32' x2='294.32' y1='0.00' y2='375.00'/>
        <line x1='300.44' x2='300.44' y1='0.00' y2='375.00'/>
        <line x1='306.55' x2='306.55' y1='0.00' y2='375.00'/>
        <line x1='312.66' x2='312.66' y1='0.00' y2='375.00'/>
        <line x1='318.78' x2='318.78' y1='0.00' y2='375.00'/>
        <line x1='324.89' x2='324.89' y1='0.00' y2='375.00'/>
        <line x1='331.00' x2='331.00' y1='0.00' y2='375.00'/>
        <line x1='337.12' x2='337.12' y1='0.00' y2='375.00'/>
        <line x1='343.23' x2='343.23' y1='0.00' y2='375.00'/>
        <line x1='349.34' x2='349.34' y1='0.00' y2='375.00'/>
        <line x1='355.46' x2='355.46' y1='0.00' y2='375.00'/>
        <line x1='361.57' x2='361.57' y1='0.00' y2='375.00'/>
        <line x1='367.69' x2='367.69' y1='0.00' y2='375.00'/>
        <line x1='373.80' x2='373.80' y1='0.00' y2='375.00'/>
        <line x1='379.91' x2='379.91' y1='0.00' y2='375.00'/>
        <line x1='386.03' x2='386.03' y1='0.00' y2='375.00'/>
        <line x1='392.14' x2='392.14' y1='0.00' y2='375.00'/>
        <line x1='398.25' x2='398.25' y1='0.00' y2='375.00'/>
        <line x1='404.37' x2='404.37' y1='0.00' y2='375.00'/>
        <line x1='410.48' x2='410.48' y1='0.00' y2='375.00'/>
        <line x1='416.59' x2='416.59' y1='0.00' y2='375.00'/>
        <line x1='422.71' x2='422.71' y1='0.00' y2='375.00'/>
        <line x1='428.82' x2='428.82' y1='0.00' y2='375.00'/>
        <line x1='434.93' x2='434.93' y1='0.00' y2='375.00'/>
        <line x1='441.05' x2='441.05' y1='0.00' y2='375.00'/>
        <line x1='447.16' x2='447.16' y1='0.00' y2='375.00'/>
        <line x1='453.28' x2='453.28' y1='0.00' y2='375.00'/>
        <line x1='459.39' x2='459.39' y1='0.00' y2='375.00'/>
        <line x1='465.50' x2='465.50' y1='0.00' y2='375.00'/>
        <line x1='471.62' x2='471.62' y1='0.00' y2='375.00'/>
        <line x1='477.73' x2='477.73' y1='0.00' y2='375.00'/>
        <line x1='483.84' x2='483.84' y1='0.00' y2='375.00'/>
        <line x1='489.96' x2='489.96' y1='0.00' y2='375.00'/>
        <line x1='496.07' x2='496.07' y1='0.00' y2='375.00'/>
        <line x1='502.18' x2='502.18' y1='0.00' y2='375.00'/>
        <line x1='508.30' x2='508.30' y1='0.00' y2='375.00'/>
        <line x1='514.41' x2='514.41' y1='0.00' y2='375.00'/>
        <line x1='520.52' x2='520.52' y1='0.00' y2='375.00'/>
        <line x1='526.64' x2='526.64' y1='0.00' y2='375.00'/>
        <line x1='532.75' x2='532.75' y1='0.00' y2='375.00'/>
        <line x1='538.86' x2='538.86' y1='0.00' y2='375.00'/>
        <line x1='544.98' x2='544.98' y1='0.00' y2='375.00'/>
        <line x1='551.09' x2='551.09' y1='0.00' y2='375.00'/>
        <line x1='557.21' x2='557.21' y1='0.00' y2='375.00'/>
        <line x1='563.32' x2='563.32' y1='0.00' y2='375.00'/>
        <line x1='569.43' x2='569.43' y1='0.00' y2='375.00'/>
        <line x1='575.55' x2='575.55' y1='0.00' y2='375.00'/>
        <line x1='581.66' x2='581.66' y1='0.00' y2='375.00'/>
        <line x1='587.77' x2='587.77' y1='0.00' y2='375.00'/>
        <line x1='593.89' x2='593.89' y1='0.00' y2='375.00'/>
        <line x1='600.00' x2='600.00' y1='0.00' y2='375.00'/>
      </g>
      <g fill='none' id='default' stroke='black'>
        <text class='titletext' style='fill: gray;stroke: none;font-family: Arial, Helvetica, sans-serif;;font-size: 24px;font-weight: bold;' x='42' y='20'>БСВ Сауле</text>
      </g>
      <g fill='none' id='default' stroke='black'>
        <polyline id='lineitem0' points='40.0,333.3 42.0,335.0 44.1,336.7 46.1,338.3 48.2,339.9 50.2,341.5 52.2,343.0 54.3,344.4 56.3,345.8 58.3,347.0 60.4,348.1 62.4,349.1 64.5,350.0 66.5,350.7 68.5,351.3 70.6,351.7 72.6,352.0 74.6,352.2 76.7,352.2 78.7,352.2 80.8,351.9 82.8,351.6 84.8,351.2 86.9,350.6 88.9,350.0 90.9,349.3 93.0,348.5 95.0,347.7 97.1,347.0 99.1,346.4 101.1,346.0 103.2,345.8 105.2,345.8 107.2,346.2 109.3,347.0 111.3,348.3 113.4,350.0 115.4,352.2 117.4,354.8 119.5,357.5 121.5,360.0 123.6,362.2 125.6,363.9 127.6,364.8 129.7,364.7 131.7,363.4 133.7,360.7 135.8,356.3 137.8,350.0 139.9,341.7 141.9,331.7 143.9,320.2 146.0,307.5 148.0,294.1 150.0,280.1 152.1,266.0 154.1,252.1 156.2,238.6 158.2,225.9 160.2,214.3 162.3,204.2 164.3,195.7 166.3,188.8 168.4,183.4 170.4,179.2 172.5,176.1 174.5,173.9 176.5,172.5 178.6,171.6 180.6,171.2 182.6,171.1 184.7,171.0 186.7,170.8 188.8,170.5 190.8,169.9 192.8,169.2 194.9,168.5 196.9,167.7 199.0,167.0 201.0,166.3 203.0,165.8 205.1,165.6 207.1,165.6 209.1,165.9 211.2,166.7 213.2,167.8 215.3,169.4 217.3,171.3 219.3,173.6 221.4,176.2 223.4,179.1 225.4,182.2 227.5,185.5 229.5,189.0 231.6,192.6 233.6,196.2 235.6,200.0 237.7,203.8 239.7,207.5 241.7,211.3 243.8,214.9 245.8,218.5 247.9,221.9 249.9,225.1 251.9,228.1 254.0,230.9 256.0,233.4 258.0,235.6 260.1,237.5 262.1,239.0 264.2,240.2 266.2,241.1 268.2,241.8 270.3,242.3 272.3,242.8 274.4,243.1 276.4,243.5 278.4,243.9 280.5,244.4 282.5,245.0 284.5,245.8 286.6,246.9 288.6,248.2 290.7,249.6 292.7,251.2 294.7,252.8 296.8,254.4 298.8,256.1 300.8,257.7 302.9,259.1 304.9,260.5 307.0,261.6 309.0,262.5 311.0,263.1 313.1,263.5 315.1,263.6 317.1,263.6 319.2,263.3 321.2,262.9 323.3,262.3 325.3,261.7 327.3,260.9 329.4,260.1 331.4,259.2 333.4,258.3 335.5,257.4 337.5,256.6 339.6,255.7 341.6,254.7 343.6,253.8 345.7,252.8 347.7,251.8 349.8,250.7 351.8,249.6 353.8,248.4 355.9,247.2 357.9,245.8 359.9,244.4 362.0,242.9 364.0,241.4 366.1,239.9 368.1,238.3 370.1,236.8 372.2,235.3 374.2,233.9 376.2,232.5 378.3,231.3 380.3,230.1 382.4,229.2 384.4,228.3 386.4,227.7 388.5,227.2 390.5,226.8 392.5,226.6 394.6,226.6 396.6,226.7 398.7,226.9 400.7,227.3 402.7,227.8 404.8,228.4 406.8,229.2 408.9,230.0 410.9,231.0 412.9,232.1 415.0,233.2 417.0,234.3 419.0,235.5 421.1,236.6 423.1,237.8 425.2,238.9 427.2,239.9 429.2,240.8 431.3,241.7 433.3,242.4 435.3,243.0 437.4,243.5 439.4,243.9 441.5,244.3 443.5,244.6 445.5,244.8 447.6,245.0 449.6,245.2 451.6,245.4 453.7,245.6 455.7,245.8 457.8,246.1 459.8,246.4 461.8,246.7 463.9,247.0 465.9,247.4 467.9,247.7 470.0,248.1 472.0,248.5 474.1,248.9 476.1,249.2 478.1,249.6 480.2,250.0 482.2,250.4 484.3,250.7 486.3,251.1 488.3,251.4 490.4,251.7 492.4,252.1 494.4,252.4 496.5,252.7 498.5,253.1 500.6,253.4 502.6,253.8 504.6,254.2 506.7,254.6 508.7,254.9 510.7,255.2 512.8,255.5 514.8,255.6 516.9,255.5 518.9,255.3 520.9,254.8 523.0,254.1 525.0,253.1 527.0,251.7 529.1,250.0 531.1,247.9 533.2,245.5 535.2,242.8 537.2,239.9 539.3,236.8 541.3,233.7 543.3,230.5 545.4,227.4 547.4,224.4 549.5,221.6 551.5,219.0 553.5,216.7 555.6,214.7 578.0,208.3 ' style='stroke: blue; stroke-width: 2;'/>
      </g>
      <g fill='none' id='default' stroke='black'>
        <g fill='none' id='legendpanel_mini' stroke='black'>
          <rect class='legendpanel' height='15' style='fill: white;fill-opacity: 0.5;' width='150' x='446' y='10'/>
          <a xlink:href='javascript:void(0);' target='_top'>
            <rect fill='white' gerbiltooltip1='Click to show a detailed legend' height='5' onclick='showDetailedLegend();' stroke='none' width='5' x='441' y='10'/>
          </a>
          <a xlink:href='javascript:void(0);' target='_top'>
            <text font-size='9' gerbiltooltip1='Click to show a detailed legend' onclick='showDetailedLegend();' stroke='#DDDDDD' x='439' y='15'>+</text>
          </a>
          <a xlink:href='javascript:void(0);' target='_top'>
            <rect fill='white' gerbiltooltip1='Click to move legend to left side' height='5' onclick='shiftLegend(-396);' stroke='none' width='5' x='441' y='25'/>
          </a>
          <a xlink:href='javascript:void(0);' target='_top'>
            <text font-size='9' gerbiltooltip1='Click to move legend to left side' onclick='shiftLegend(-396);' stroke='#DDDDDD' x='439' y='25'>&lt;</text>
          </a>
          <a xlink:href='javascript:void(0);' target='_top'>
            <rect fill='white' gerbiltooltip1='Click to move legend to right side' height='5' onclick='shiftLegend(0);' stroke='none' width='5' x='441' y='35'/>
          </a>
          <a xlink:href='javascript:void(0);' target='_top'>
            <text font-size='9' gerbiltooltip1='Click to move legend to right side' onclick='shiftLegend(0);' stroke='#DDDDDD' x='439' y='35'>&gt;</text>
          </a>
          <circle cx='455' cy='17' fill='gray' id='lbx0' onclick='ToggleVisibility(0)' r='4' stroke='none'/>
          <rect height='10' id='item0' style='stroke:blue;fill: blue;' width='10' x='466' y='12'/>
          <text class='legendtext' gerbiltooltip1='{:title=&gt;&quot;\u0411\u0421\u0412 \u0421\u0430\u0443\u043B\u0435&quot;}' gerbiltooltip2='Latest Value = 5.0' onmouseout='OpacityUp(evt)' onmouseover='OpacityDown(evt)' style='font-family: Verdana, Geneva, Arial, Helvetica, sans-serif;font-size: 10px;fill: black;stroke: none;' title='БСВ Сауле' x='481' y='20'/>
        </g>
      </g>
      <g fill='none' id='default' stroke='black'>
        <g fill='none' id='legendpanel_detail' stroke='black' visibility='hidden'>
          <rect class='legendpanel' height='31' style='fill: white;fill-opacity: 0.5;' width='450' x='146' y='10'/>
          <a xlink:href='javascript:void(0);' target='_top'>
            <rect fill='white' gerbiltooltip1='Click to show compact legend' height='5' onclick='showMiniLegend();' stroke='none' width='5' x='141' y='10'/>
          </a>
          <a xlink:href='javascript:void(0);' target='_top'>
            <text font-size='9' gerbiltooltip1='Click to show compact legend' onclick='showMiniLegend();' stroke='#DDDDDD' x='142' y='15'>&gt;</text>
          </a>
          <text class='legendstats' xml:space='preserve' x='278' y='20'>      Max      Min      Avg   Latest</text>
          <rect height='10' id='item0' style='stroke:blue;fill: blue;' width='10' x='148' y='28'/>
          <text class='legendtext' gerbiltooltip1='{:title=&gt;&quot;\u0411\u0421\u0412 \u0421\u0430\u0443\u043B\u0435&quot;}' gerbiltooltip2='Latest Value = 5.0' onmouseout='OpacityUp(evt)' onmouseover='OpacityDown(evt)' style='font-family: Verdana, Geneva, Arial, Helvetica, sans-serif;font-size: 10px;fill: black;stroke: none;' title='БСВ Сауле' x='163' y='36'/>
          <text class='legendstats' xml:space='preserve' x='278' y='36'>        6      1.2      3.9        5</text>
        </g>
      </g>
      <g fill='none' id='default' stroke='black'>
        <rect class='axispanel' height='375' style='fill: lightgray;' width='40' x='0' y='0'/>
        <text class='axislabel' style='font-family: sans;font-size: 10px;fill: black;stroke: none;' text-anchor='end' x='36' y='379.0'>1</text>
        <line class='axistickmajor' style='stroke-width: 2;stroke: black;' x1='39.00' x2='41.00' y1='375.00' y2='375.00'/>
        <text class='axislabel' style='font-family: sans;font-size: 10px;fill: black;stroke: none;' text-anchor='end' x='36' y='337.3333333333333'>2</text>
        <line class='axistickmajor' style='stroke-width: 2;stroke: black;' x1='39.00' x2='41.00' y1='333.33' y2='333.33'/>
        <text class='axislabel' style='font-family: sans;font-size: 10px;fill: black;stroke: none;' text-anchor='end' x='36' y='295.6666666666667'>3</text>
        <line class='axistickmajor' style='stroke-width: 2;stroke: black;' x1='39.00' x2='41.00' y1='291.67' y2='291.67'/>
        <text class='axislabel' style='font-family: sans;font-size: 10px;fill: black;stroke: none;' text-anchor='end' x='36' y='254.0'>4</text>
        <line class='axistickmajor' style='stroke-width: 2;stroke: black;' x1='39.00' x2='41.00' y1='250.00' y2='250.00'/>
        <text class='axislabel' style='font-family: sans;font-size: 10px;fill: black;stroke: none;' text-anchor='end' x='36' y='212.33333333333334'>5</text>
        <line class='axistickmajor' style='stroke-width: 2;stroke: black;' x1='39.00' x2='41.00' y1='208.33' y2='208.33'/>
        <text class='axislabel' style='font-family: sans;font-size: 10px;fill: black;stroke: none;' text-anchor='end' x='36' y='170.66666666666666'>6</text>
        <line class='axistickmajor' style='stroke-width: 2;stroke: black;' x1='39.00' x2='41.00' y1='166.67' y2='166.67'/>
        <text class='axislabel' style='font-family: sans;font-size: 10px;fill: black;stroke: none;' text-anchor='end' x='36' y='129.0'>7</text>
        <line class='axistickmajor' style='stroke-width: 2;stroke: black;' x1='39.00' x2='41.00' y1='125.00' y2='125.00'/>
        <text class='axislabel' style='font-family: sans;font-size: 10px;fill: black;stroke: none;' text-anchor='end' x='36' y='87.33333333333331'>8</text>
        <line class='axistickmajor' style='stroke-width: 2;stroke: black;' x1='39.00' x2='41.00' y1='83.33' y2='83.33'/>
        <text class='axislabel' style='font-family: sans;font-size: 10px;fill: black;stroke: none;' text-anchor='end' x='36' y='45.666666666666686'>9</text>
        <line class='axistickmajor' style='stroke-width: 2;stroke: black;' x1='39.00' x2='41.00' y1='41.67' y2='41.67'/>
        <text class='axislabel' style='font-family: sans;font-size: 10px;fill: black;stroke: none;' text-anchor='end' x='36' y='10'>10</text>
        <line class='axistickmajor' style='stroke-width: 2;stroke: black;' x1='39.00' x2='41.00' y1='0.00' y2='0.00'/>
      </g>
      <g fill='none' id='default' stroke='black'>
        <rect class='axispanel' height='25' style='fill: lightgray;' width='560' x='40' y='375'/>
        <text class='axislabel' style='font-family: sans;font-size: 10px;fill: black;stroke: none;' text-anchor='middle' x='62.00873362445415' y='386'>02:00</text>
        <line class='axistickmajor' style='stroke-width: 2;stroke: black;' x1='62.01' x2='62.01' y1='373.00' y2='376.00'/>
        <text class='axislabel' style='font-family: sans;font-size: 10px;fill: black;stroke: none;' text-anchor='middle' x='110.91703056768559' y='386'>04:00</text>
        <line class='axistickmajor' style='stroke-width: 2;stroke: black;' x1='110.92' x2='110.92' y1='373.00' y2='376.00'/>
        <text class='axislabel' style='font-family: sans;font-size: 10px;fill: black;stroke: none;' text-anchor='middle' x='159.82532751091702' y='386'>06:00</text>
        <line class='axistickmajor' style='stroke-width: 2;stroke: black;' x1='159.83' x2='159.83' y1='373.00' y2='376.00'/>
        <text class='axislabel' style='font-family: sans;font-size: 10px;fill: black;stroke: none;' text-anchor='middle' x='208.73362445414847' y='386'>08:00</text>
        <line class='axistickmajor' style='stroke-width: 2;stroke: black;' x1='208.73' x2='208.73' y1='373.00' y2='376.00'/>
        <text class='axislabel' style='font-family: sans;font-size: 10px;fill: black;stroke: none;' text-anchor='middle' x='257.6419213973799' y='386'>10:00</text>
        <line class='axistickmajor' style='stroke-width: 2;stroke: black;' x1='257.64' x2='257.64' y1='373.00' y2='376.00'/>
        <text class='axislabel' style='font-family: sans;font-size: 10px;fill: black;stroke: none;' text-anchor='middle' x='306.55021834061137' y='386'>12:00</text>
        <line class='axistickmajor' style='stroke-width: 2;stroke: black;' x1='306.55' x2='306.55' y1='373.00' y2='376.00'/>
        <text class='axislabel' style='font-family: sans;font-size: 10px;fill: black;stroke: none;' text-anchor='middle' x='355.45851528384276' y='386'>14:00</text>
        <line class='axistickmajor' style='stroke-width: 2;stroke: black;' x1='355.46' x2='355.46' y1='373.00' y2='376.00'/>
        <text class='axislabel' style='font-family: sans;font-size: 10px;fill: black;stroke: none;' text-anchor='middle' x='404.3668122270742' y='386'>16:00</text>
        <line class='axistickmajor' style='stroke-width: 2;stroke: black;' x1='404.37' x2='404.37' y1='373.00' y2='376.00'/>
        <text class='axislabel' style='font-family: sans;font-size: 10px;fill: black;stroke: none;' text-anchor='middle' x='453.2751091703057' y='386'>18:00</text>
        <line class='axistickmajor' style='stroke-width: 2;stroke: black;' x1='453.28' x2='453.28' y1='373.00' y2='376.00'/>
        <text class='axislabel' style='font-family: sans;font-size: 10px;fill: black;stroke: none;' text-anchor='middle' x='502.18340611353716' y='386'>20:00</text>
        <line class='axistickmajor' style='stroke-width: 2;stroke: black;' x1='502.18' x2='502.18' y1='373.00' y2='376.00'/>
        <text class='axislabel' style='font-family: sans;font-size: 10px;fill: black;stroke: none;' text-anchor='middle' x='551.0917030567686' y='386'>22:00</text>
        <line class='axistickmajor' style='stroke-width: 2;stroke: black;' x1='551.09' x2='551.09' y1='373.00' y2='376.00'/>
        <text class='axislabel' style='font-family: sans;font-size: 10px;fill: black;stroke: none;' text-anchor='middle' x='590' y='386'>May-02</text>
        <line class='axistickmajor' style='stroke-width: 2;stroke: black;' x1='590.00' x2='590.00' y1='373.00' y2='376.00'/>
        <text class='axislabelt0' style='font-family: sans;font-size: 8px;fill: black;stroke: none;' x='20' y='397'>2013-05-01 01:06:00 +0600</text>
        <line class='axistickmajor' style='stroke-width: 2;stroke: black;' x1='40.00' x2='40.00' y1='375.00' y2='377.00'/>
      </g>
    </g>
  </g>
</svg>
