<?xml version='1.0' encoding='UTF-8'?>
<!DOCTYPE svg PUBLIC "-//W3C//DTD SVG 1.1//EN" "http://www.w3.org/Graphics/SVG/1.1/DTD/svg11.dtd"><svg height='400' version='1.1' width='600' xmlns:xlink='http://www.w3.org/1999/xlink' xmlns='http://www.w3.org/2000/svg'>
  <defs>
    <linearGradient id='vertgrad' x1='0%' x2='0%' y1='0%' y2='100%'>
      <stop offset='0%' style='stop-color:rgb(255,255,255)'/>
      <stop offset='100%' style='stop-color:rgb(192,192,192)'/>
    </linearGradient>
  </defs>
  <g id='GerbilSVGGraph'>
    <g fill='none' id='Gerbil_Root_Window' stroke='black'>
      <g fill='none' id='default' stroke='black'>
        <rect class='surfaceback' height='375' style='fill: url(#vertgrad);' width='560' x='40' y='0'/>
      </g>
      <g fill='none' id='default' stroke='black'>
        <g class='gridlineh' fill='none' id='hgrid' stroke='black' style='stroke-width: 1;stroke: lightgray;'>
          <line x1='40.00' x2='600.00' y1='375.00' y2='375.00'/>
          <line x1='40.00' x2='600.00' y1='281.25' y2='281.25'/>
          <line x1='40.00' x2='600.00' y1='187.50' y2='187.50'/>
          <line x1='40.00' x2='600.00' y1='93.75' y2='93.75'/>
          <line x1='40.00' x2='600.00' y1='0.00' y2='0.00'/>
        </g>
      </g>
      <g class='gridlinesub' fill='none' id='hgridsub' stroke='black'>
        <line x1='40.00' x2='600.00' y1='375.00' y2='375.00'/>
        <line x1='40.00' x2='600.00' y1='356.25' y2='356.25'/>
        <line x1='40.00' x2='600.00' y1='337.50' y2='337.50'/>
        <line x1='40.00' x2='600.00' y1='318.75' y2='318.75'/>
        <line x1='40.00' x2='600.00' y1='300.00' y2='300.00'/>
        <line x1='40.00' x2='600.00' y1='281.25' y2='281.25'/>
        <line x1='40.00' x2='600.00' y1='262.50' y2='262.50'/>
        <line x1='40.00' x2='600.00' y1='243.75' y2='243.75'/>
        <line x1='40.00' x2='600.00' y1='225.00' y2='225.00'/>
        <line x1='40.00' x2='600.00' y1='206.25' y2='206.25'/>
        <line x1='40.00' x2='600.00' y1='187.50' y2='187.50'/>
        <line x1='40.00' x2='600.00' y1='168.75' y2='168.75'/>
        <line x1='40.00' x2='600.00' y1='150.00' y2='150.00'/>
        <line x1='40.00' x2='600.00' y1='131.25' y2='131.25'/>
        <line x1='40.00' x2='600.00' y1='112.50' y2='112.50'/>
        <line x1='40.00' x2='600.00' y1='93.75' y2='93.75'/>
        <line x1='40.00' x2='600.00' y1='75.00' y2='75.00'/>
        <line x1='40.00' x2='600.00' y1='56.25' y2='56.25'/>
        <line x1='40.00' x2='600.00' y1='37.50' y2='37.50'/>
        <line x1='40.00' x2='600.00' y1='18.75' y2='18.75'/>
      </g>
      <g class='gridlinev' fill='none' id='vgrid' stroke='black' style='stroke-width: 1;stroke: lightgray;'>
        <line x1='78.62' x2='78.62' y1='0.00' y2='375.00'/>
        <line x1='171.31' x2='171.31' y1='0.00' y2='375.00'/>
        <line x1='264.00' x2='264.00' y1='0.00' y2='375.00'/>
        <line x1='356.69' x2='356.69' y1='0.00' y2='375.00'/>
        <line x1='449.38' x2='449.38' y1='0.00' y2='375.00'/>
        <line x1='542.07' x2='542.07' y1='0.00' y2='375.00'/>
      </g>
      <g class='gridlinesub' fill='none' id='vgridsub' stroke='black'>
        <line x1='78.62' x2='78.62' y1='0.00' y2='375.00'/>
        <line x1='124.97' x2='124.97' y1='0.00' y2='375.00'/>
        <line x1='171.31' x2='171.31' y1='0.00' y2='375.00'/>
        <line x1='217.66' x2='217.66' y1='0.00' y2='375.00'/>
        <line x1='264.00' x2='264.00' y1='0.00' y2='375.00'/>
        <line x1='310.34' x2='310.34' y1='0.00' y2='375.00'/>
        <line x1='356.69' x2='356.69' y1='0.00' y2='375.00'/>
        <line x1='403.03' x2='403.03' y1='0.00' y2='375.00'/>
        <line x1='449.38' x2='449.38' y1='0.00' y2='375.00'/>
        <line x1='495.72' x2='495.72' y1='0.00' y2='375.00'/>
        <line x1='542.07' x2='542.07' y1='0.00' y2='375.00'/>
        <line x1='588.41' x2='588.41' y1='0.00' y2='375.00'/>
      </g>
      <g fill='none' id='default' stroke='black'>
        <text class='titletext' style='fill: gray;stroke: none;font-family: Arial, Helvetica, sans-serif;;font-size: 24px;font-weight: bold;' x='42' y='20'>Шымкент мкр Кайпас 	- 7490 ТОО "Алтын дала Казахстан" 	- Не указан 	- </text>
      </g>
      <g fill='none' id='default' stroke='black'>
        <polyline id='lineitem0' points='40.0,375.0 41.9,375.0 43.9,375.0 49.7,375.0 227.3,150.0 240.8,375.0 376.0,375.0 379.9,375.0 385.7,375.0 387.6,375.0 389.5,375.0 391.4,375.0 393.4,375.0 395.3,375.0 397.2,375.0 399.2,375.0 401.1,375.0 403.0,375.0 410.8,375.0 412.7,375.0 414.6,375.0 416.6,375.0 418.5,375.0 420.4,375.0 422.3,375.0 424.3,375.0 426.2,375.0 432.0,375.0 433.9,375.0 435.9,375.0 437.8,375.0 439.7,375.0 441.7,375.0 449.4,375.0 451.3,375.0 455.2,375.0 457.1,375.0 459.0,375.0 461.0,375.0 462.9,375.0 464.8,375.0 466.8,375.0 470.6,375.0 472.6,375.0 476.4,375.0 478.3,375.0 484.1,375.0 486.1,375.0 488.0,375.0 493.8,375.0 497.7,375.0 499.6,375.0 501.5,375.0 503.4,375.0 505.4,375.0 507.3,375.0 509.2,375.0 511.2,375.0 513.1,375.0 515.0,375.0 517.0,375.0 518.9,375.0 520.8,375.0 524.7,375.0 526.6,375.0 528.6,375.0 534.3,375.0 536.3,375.0 538.2,375.0 542.1,375.0 544.0,375.0 545.9,375.0 547.9,375.0 549.8,375.0 551.7,375.0 553.7,375.0 555.6,375.0 557.5,375.0 559.4,375.0 561.4,375.0 ' style='stroke: blue; stroke-width: 2;'/>
      </g>
      <g fill='none' id='default' stroke='black'>
        <g fill='none' id='legendpanel_mini' stroke='black'>
          <rect class='legendpanel' height='15' style='fill: white;fill-opacity: 0.5;' width='150' x='446' y='10'/>
          <a xlink:href='javascript:void(0);' target='_top'>
            <rect fill='white' gerbiltooltip1='Click to show a detailed legend' height='5' onclick='showDetailedLegend();' stroke='none' width='5' x='441' y='10'/>
          </a>
          <a xlink:href='javascript:void(0);' target='_top'>
            <text font-size='9' gerbiltooltip1='Click to show a detailed legend' onclick='showDetailedLegend();' stroke='#DDDDDD' x='439' y='15'>+</text>
          </a>
          <a xlink:href='javascript:void(0);' target='_top'>
            <rect fill='white' gerbiltooltip1='Click to move legend to left side' height='5' onclick='shiftLegend(-396);' stroke='none' width='5' x='441' y='25'/>
          </a>
          <a xlink:href='javascript:void(0);' target='_top'>
            <text font-size='9' gerbiltooltip1='Click to move legend to left side' onclick='shiftLegend(-396);' stroke='#DDDDDD' x='439' y='25'>&lt;</text>
          </a>
          <a xlink:href='javascript:void(0);' target='_top'>
            <rect fill='white' gerbiltooltip1='Click to move legend to right side' height='5' onclick='shiftLegend(0);' stroke='none' width='5' x='441' y='35'/>
          </a>
          <a xlink:href='javascript:void(0);' target='_top'>
            <text font-size='9' gerbiltooltip1='Click to move legend to right side' onclick='shiftLegend(0);' stroke='#DDDDDD' x='439' y='35'>&gt;</text>
          </a>
          <circle cx='455' cy='17' fill='gray' id='lbx0' onclick='ToggleVisibility(0)' r='4' stroke='none'/>
          <rect height='10' id='item0' style='stroke:blue;fill: blue;' width='10' x='466' y='12'/>
          <text class='legendtext' gerbiltooltip1='{:title=&gt;&quot;\u0428\u044B\u043C\u043A\u0435\u043D\u0442 \u043C\u043A\u0440 \u041A\u0430\u0439\u043F\u0430\u0441 \t- 7490 \u0422\u041E\u041E \&quot;\u0410\u043B\u0442\u044B\u043D \u0434\u0430\u043B\u0430 \u041A\u0430\u0437\u0430\u0445\u0441\u0442\u0430\u043D\&quot; \t- \u041D\u0435 \u0443\u043A\u0430\u0437\u0430\u043D \t- &quot;}' gerbiltooltip2='Latest Value = 0.0' onmouseout='OpacityUp(evt)' onmouseover='OpacityDown(evt)' style='font-family: Verdana, Geneva, Arial, Helvetica, sans-serif;font-size: 10px;fill: black;stroke: none;' title='Шымкент мкр Кайпас 	- 7490 ТОО &quot;Алтын дала Казахстан&quot; 	- Не указан 	- ' x='481' y='20'/>
        </g>
      </g>
      <g fill='none' id='default' stroke='black'>
        <g fill='none' id='legendpanel_detail' stroke='black' visibility='hidden'>
          <rect class='legendpanel' height='31' style='fill: white;fill-opacity: 0.5;' width='450' x='146' y='10'/>
          <a xlink:href='javascript:void(0);' target='_top'>
            <rect fill='white' gerbiltooltip1='Click to show compact legend' height='5' onclick='showMiniLegend();' stroke='none' width='5' x='141' y='10'/>
          </a>
          <a xlink:href='javascript:void(0);' target='_top'>
            <text font-size='9' gerbiltooltip1='Click to show compact legend' onclick='showMiniLegend();' stroke='#DDDDDD' x='142' y='15'>&gt;</text>
          </a>
          <text class='legendstats' xml:space='preserve' x='278' y='20'>      Max      Min      Avg   Latest</text>
          <rect height='10' id='item0' style='stroke:blue;fill: blue;' width='10' x='148' y='28'/>
          <text class='legendtext' gerbiltooltip1='{:title=&gt;&quot;\u0428\u044B\u043C\u043A\u0435\u043D\u0442 \u043C\u043A\u0440 \u041A\u0430\u0439\u043F\u0430\u0441 \t- 7490 \u0422\u041E\u041E \&quot;\u0410\u043B\u0442\u044B\u043D \u0434\u0430\u043B\u0430 \u041A\u0430\u0437\u0430\u0445\u0441\u0442\u0430\u043D\&quot; \t- \u041D\u0435 \u0443\u043A\u0430\u0437\u0430\u043D \t- &quot;}' gerbiltooltip2='Latest Value = 0.0' onmouseout='OpacityUp(evt)' onmouseover='OpacityDown(evt)' style='font-family: Verdana, Geneva, Arial, Helvetica, sans-serif;font-size: 10px;fill: black;stroke: none;' title='Шымкент мкр Кайпас 	- 7490 ТОО &quot;Алтын дала Казахстан&quot; 	- Не указан 	- ' x='163' y='36'/>
          <text class='legendstats' xml:space='preserve' x='278' y='36'>       12        0     150m        0</text>
        </g>
      </g>
      <g fill='none' id='default' stroke='black'>
        <rect class='axispanel' height='375' style='fill: lightgray;' width='40' x='0' y='0'/>
        <text class='axislabel' style='font-family: sans;font-size: 10px;fill: black;stroke: none;' text-anchor='end' x='36' y='379.0'>0</text>
        <line class='axistickmajor' style='stroke-width: 2;stroke: black;' x1='39.00' x2='41.00' y1='375.00' y2='375.00'/>
        <text class='axislabel' style='font-family: sans;font-size: 10px;fill: black;stroke: none;' text-anchor='end' x='36' y='285.25'>5</text>
        <line class='axistickmajor' style='stroke-width: 2;stroke: black;' x1='39.00' x2='41.00' y1='281.25' y2='281.25'/>
        <text class='axislabel' style='font-family: sans;font-size: 10px;fill: black;stroke: none;' text-anchor='end' x='36' y='191.5'>10</text>
        <line class='axistickmajor' style='stroke-width: 2;stroke: black;' x1='39.00' x2='41.00' y1='187.50' y2='187.50'/>
        <text class='axislabel' style='font-family: sans;font-size: 10px;fill: black;stroke: none;' text-anchor='end' x='36' y='97.75'>15</text>
        <line class='axistickmajor' style='stroke-width: 2;stroke: black;' x1='39.00' x2='41.00' y1='93.75' y2='93.75'/>
        <text class='axislabel' style='font-family: sans;font-size: 10px;fill: black;stroke: none;' text-anchor='end' x='36' y='10'>20</text>
        <line class='axistickmajor' style='stroke-width: 2;stroke: black;' x1='39.00' x2='41.00' y1='0.00' y2='0.00'/>
      </g>
      <g fill='none' id='default' stroke='black'>
        <rect class='axispanel' height='25' style='fill: lightgray;' width='560' x='40' y='375'/>
        <text class='axislabel' style='font-family: sans;font-size: 10px;fill: black;stroke: none;' text-anchor='middle' x='78.62068965517241' y='386'>Apr-02</text>
        <line class='axistickmajor' style='stroke-width: 2;stroke: black;' x1='78.62' x2='78.62' y1='373.00' y2='376.00'/>
        <text class='axislabel' style='font-family: sans;font-size: 10px;fill: black;stroke: none;' text-anchor='middle' x='171.3103448275862' y='386'>Apr-04</text>
        <line class='axistickmajor' style='stroke-width: 2;stroke: black;' x1='171.31' x2='171.31' y1='373.00' y2='376.00'/>
        <text class='axislabel' style='font-family: sans;font-size: 10px;fill: black;stroke: none;' text-anchor='middle' x='264.0' y='386'>Apr-06</text>
        <line class='axistickmajor' style='stroke-width: 2;stroke: black;' x1='264.00' x2='264.00' y1='373.00' y2='376.00'/>
        <text class='axislabel' style='font-family: sans;font-size: 10px;fill: black;stroke: none;' text-anchor='middle' x='356.6896551724138' y='386'>Apr-08</text>
        <line class='axistickmajor' style='stroke-width: 2;stroke: black;' x1='356.69' x2='356.69' y1='373.00' y2='376.00'/>
        <text class='axislabel' style='font-family: sans;font-size: 10px;fill: black;stroke: none;' text-anchor='middle' x='449.3793103448276' y='386'>Apr-10</text>
        <line class='axistickmajor' style='stroke-width: 2;stroke: black;' x1='449.38' x2='449.38' y1='373.00' y2='376.00'/>
        <text class='axislabel' style='font-family: sans;font-size: 10px;fill: black;stroke: none;' text-anchor='middle' x='542.0689655172414' y='386'>Apr-12</text>
        <line class='axistickmajor' style='stroke-width: 2;stroke: black;' x1='542.07' x2='542.07' y1='373.00' y2='376.00'/>
        <text class='axislabelt0' style='font-family: sans;font-size: 8px;fill: black;stroke: none;' x='20' y='397'>2013-04-01 04:00:00 +0600</text>
        <line class='axistickmajor' style='stroke-width: 2;stroke: black;' x1='40.00' x2='40.00' y1='375.00' y2='377.00'/>
      </g>
    </g>
  </g>
</svg>
